^C:\USERS\ZOLTÁN\DESKTOP\ENVIROMENTCREATOR_VASS_ZOLTÁN_P0E4P2\ENVIROMENTCREATOR\PCH.CPP
C:\USERS\ZOLTáN\DESKTOP\ENVIROMENTCREATOR_VASS_ZOLTáN_P0E4P2\ENVIROMENTCREATOR\DEBUG\PCH.PCH
C:\USERS\ZOLTáN\DESKTOP\ENVIROMENTCREATOR_VASS_ZOLTáN_P0E4P2\ENVIROMENTCREATOR\DEBUG\VC140.PDB
C:\USERS\ZOLTáN\DESKTOP\ENVIROMENTCREATOR_VASS_ZOLTáN_P0E4P2\ENVIROMENTCREATOR\DEBUG\VC140.IDB
C:\USERS\ZOLTáN\DESKTOP\ENVIROMENTCREATOR_VASS_ZOLTáN_P0E4P2\ENVIROMENTCREATOR\DEBUG\PCH.OBJ
^C:\USERS\ZOLTÁN\DESKTOP\ENVIROMENTCREATOR_VASS_ZOLTÁN_P0E4P2\ENVIROMENTCREATOR\APP.XAML.CPP|C:\USERS\ZOLTÁN\DESKTOP\ENVIROMENTCREATOR_VASS_ZOLTÁN_P0E4P2\ENVIROMENTCREATOR\CONTROLCAMERAANDLIGHTPAGE.XAML.CPP|C:\USERS\ZOLTÁN\DESKTOP\ENVIROMENTCREATOR_VASS_ZOLTÁN_P0E4P2\ENVIROMENTCREATOR\CONTROLCONTENTPAGE.XAML.CPP|C:\USERS\ZOLTÁN\DESKTOP\ENVIROMENTCREATOR_VASS_ZOLTÁN_P0E4P2\ENVIROMENTCREATOR\CONTROLMODELPAGE.XAML.CPP|C:\USERS\ZOLTÁN\DESKTOP\ENVIROMENTCREATOR_VASS_ZOLTÁN_P0E4P2\ENVIROMENTCREATOR\DIRECTXPAGE.XAML.CPP|C:\USERS\ZOLTÁN\DESKTOP\ENVIROMENTCREATOR_VASS_ZOLTÁN_P0E4P2\ENVIROMENTCREATOR\ENVIROMENTCREATORMAIN.CPP|C:\USERS\ZOLTÁN\DESKTOP\ENVIROMENTCREATOR_VASS_ZOLTÁN_P0E4P2\ENVIROMENTCREATOR\GENERATED FILES\XAMLTYPEINFO.IMPL.G.CPP
C:\USERS\ZOLTáN\DESKTOP\ENVIROMENTCREATOR_VASS_ZOLTáN_P0E4P2\ENVIROMENTCREATOR\DEBUG\CONTROLCONTENTPAGE.XAML.OBJ
C:\USERS\ZOLTáN\DESKTOP\ENVIROMENTCREATOR_VASS_ZOLTáN_P0E4P2\ENVIROMENTCREATOR\DEBUG\CONTROLMODELPAGE.XAML.OBJ
C:\USERS\ZOLTáN\DESKTOP\ENVIROMENTCREATOR_VASS_ZOLTáN_P0E4P2\ENVIROMENTCREATOR\DEBUG\DIRECTXPAGE.XAML.OBJ
C:\USERS\ZOLTáN\DESKTOP\ENVIROMENTCREATOR_VASS_ZOLTáN_P0E4P2\ENVIROMENTCREATOR\DEBUG\APP.XAML.OBJ
C:\USERS\ZOLTáN\DESKTOP\ENVIROMENTCREATOR_VASS_ZOLTáN_P0E4P2\ENVIROMENTCREATOR\DEBUG\ENVIROMENTCREATORMAIN.OBJ
C:\USERS\ZOLTáN\DESKTOP\ENVIROMENTCREATOR_VASS_ZOLTáN_P0E4P2\ENVIROMENTCREATOR\DEBUG\XAMLTYPEINFO.IMPL.G.OBJ
C:\USERS\ZOLTáN\DESKTOP\ENVIROMENTCREATOR_VASS_ZOLTáN_P0E4P2\ENVIROMENTCREATOR\DEBUG\CONTROLCAMERAANDLIGHTPAGE.XAML.OBJ
^C:\USERS\ZOLTÁN\DESKTOP\ENVIROMENTCREATOR_VASS_ZOLTÁN_P0E4P2\ENVIROMENTCREATOR\APP.XAML.CPP
C:\USERS\ZOLTÁN\DESKTOP\ENVIROMENTCREATOR_VASS_ZOLTÁN_P0E4P2\ENVIROMENTCREATOR\DEBUG\VC140.PDB
^C:\USERS\ZOLTÁN\DESKTOP\ENVIROMENTCREATOR_VASS_ZOLTÁN_P0E4P2\ENVIROMENTCREATOR\CONTROLCAMERAANDLIGHTPAGE.XAML.CPP
C:\USERS\ZOLTÁN\DESKTOP\ENVIROMENTCREATOR_VASS_ZOLTÁN_P0E4P2\ENVIROMENTCREATOR\DEBUG\VC140.PDB
^C:\USERS\ZOLTÁN\DESKTOP\ENVIROMENTCREATOR_VASS_ZOLTÁN_P0E4P2\ENVIROMENTCREATOR\CONTROLCONTENTPAGE.XAML.CPP
C:\USERS\ZOLTÁN\DESKTOP\ENVIROMENTCREATOR_VASS_ZOLTÁN_P0E4P2\ENVIROMENTCREATOR\DEBUG\VC140.PDB
^C:\USERS\ZOLTÁN\DESKTOP\ENVIROMENTCREATOR_VASS_ZOLTÁN_P0E4P2\ENVIROMENTCREATOR\CONTROLMODELPAGE.XAML.CPP
C:\USERS\ZOLTÁN\DESKTOP\ENVIROMENTCREATOR_VASS_ZOLTÁN_P0E4P2\ENVIROMENTCREATOR\DEBUG\VC140.PDB
^C:\USERS\ZOLTÁN\DESKTOP\ENVIROMENTCREATOR_VASS_ZOLTÁN_P0E4P2\ENVIROMENTCREATOR\ENVIROMENTCREATORMAIN.CPP
C:\USERS\ZOLTÁN\DESKTOP\ENVIROMENTCREATOR_VASS_ZOLTÁN_P0E4P2\ENVIROMENTCREATOR\DEBUG\VC140.PDB
^C:\USERS\ZOLTÁN\DESKTOP\ENVIROMENTCREATOR_VASS_ZOLTÁN_P0E4P2\ENVIROMENTCREATOR\DIRECTXPAGE.XAML.CPP
C:\USERS\ZOLTÁN\DESKTOP\ENVIROMENTCREATOR_VASS_ZOLTÁN_P0E4P2\ENVIROMENTCREATOR\DEBUG\VC140.PDB
^C:\USERS\ZOLTÁN\DESKTOP\ENVIROMENTCREATOR_VASS_ZOLTÁN_P0E4P2\ENVIROMENTCREATOR\GENERATED FILES\XAMLTYPEINFO.IMPL.G.CPP
C:\USERS\ZOLTÁN\DESKTOP\ENVIROMENTCREATOR_VASS_ZOLTÁN_P0E4P2\ENVIROMENTCREATOR\DEBUG\VC140.PDB
^C:\USERS\ZOLTÁN\DESKTOP\ENVIROMENTCREATOR_VASS_ZOLTÁN_P0E4P2\ENVIROMENTCREATOR\GENERATED FILES\XAMLTYPEINFO.G.CPP
C:\USERS\ZOLTáN\DESKTOP\ENVIROMENTCREATOR_VASS_ZOLTáN_P0E4P2\ENVIROMENTCREATOR\DEBUG\VC140.PDB
C:\USERS\ZOLTáN\DESKTOP\ENVIROMENTCREATOR_VASS_ZOLTáN_P0E4P2\ENVIROMENTCREATOR\DEBUG\VC140.IDB
C:\USERS\ZOLTáN\DESKTOP\ENVIROMENTCREATOR_VASS_ZOLTáN_P0E4P2\ENVIROMENTCREATOR\DEBUG\XAMLTYPEINFO.G.OBJ
