^C:\USERS\ZOLTÁN\DESKTOP\ENVIROMENTCREATOR_VASS_ZOLTÁN_P0E4P2\ENVIROMENTCREATOR\CONTENT\SAMPLEPIXELSHADER.HLSL
C:\PROGRAM FILES (X86)\WINDOWS KITS\10\BIN\X86\FXC.EXE
C:\WINDOWS\GLOBALIZATION\SORTING\SORTDEFAULT.NLS
^C:\USERS\ZOLTÁN\DESKTOP\ENVIROMENTCREATOR_VASS_ZOLTÁN_P0E4P2\ENVIROMENTCREATOR\CONTENT\SAMPLEVERTEXSHADER.HLSL
C:\PROGRAM FILES (X86)\WINDOWS KITS\10\BIN\X86\FXC.EXE
C:\WINDOWS\GLOBALIZATION\SORTING\SORTDEFAULT.NLS
