^C:\USERS\ZOLTÁN\DESKTOP\ENVIROMENTCREATOR_VASS_ZOLTÁN_P0E4P2\ENVIROMENTCREATOR\CONTENT\SAMPLEPIXELSHADER.HLSL
C:\USERS\ZOLTáN\DESKTOP\ENVIROMENTCREATOR_VASS_ZOLTáN_P0E4P2\DEBUG\ENVIROMENTCREATOR\SAMPLEPIXELSHADER.CSO
^C:\USERS\ZOLTÁN\DESKTOP\ENVIROMENTCREATOR_VASS_ZOLTÁN_P0E4P2\ENVIROMENTCREATOR\CONTENT\SAMPLEVERTEXSHADER.HLSL
C:\USERS\ZOLTáN\DESKTOP\ENVIROMENTCREATOR_VASS_ZOLTáN_P0E4P2\DEBUG\ENVIROMENTCREATOR\SAMPLEVERTEXSHADER.CSO
