^C:\USERS\ZOLTÁN\DESKTOP\ENVIROMENTCREATOR_VASS_ZOLTÁN_P0E4P2\DEBUG\BASEENGINE\BASEENGINE.LIB|C:\USERS\ZOLTÁN\DESKTOP\ENVIROMENTCREATOR_VASS_ZOLTÁN_P0E4P2\ENVIROMENTCREATOR\DEBUG\APP.XAML.OBJ|C:\USERS\ZOLTÁN\DESKTOP\ENVIROMENTCREATOR_VASS_ZOLTÁN_P0E4P2\ENVIROMENTCREATOR\DEBUG\CONTROLCAMERAANDLIGHTPAGE.XAML.OBJ|C:\USERS\ZOLTÁN\DESKTOP\ENVIROMENTCREATOR_VASS_ZOLTÁN_P0E4P2\ENVIROMENTCREATOR\DEBUG\CONTROLCONTENTPAGE.XAML.OBJ|C:\USERS\ZOLTÁN\DESKTOP\ENVIROMENTCREATOR_VASS_ZOLTÁN_P0E4P2\ENVIROMENTCREATOR\DEBUG\CONTROLMODELPAGE.XAML.OBJ|C:\USERS\ZOLTÁN\DESKTOP\ENVIROMENTCREATOR_VASS_ZOLTÁN_P0E4P2\ENVIROMENTCREATOR\DEBUG\DIRECTXPAGE.XAML.OBJ|C:\USERS\ZOLTÁN\DESKTOP\ENVIROMENTCREATOR_VASS_ZOLTÁN_P0E4P2\ENVIROMENTCREATOR\DEBUG\ENVIROMENTCREATORMAIN.OBJ|C:\USERS\ZOLTÁN\DESKTOP\ENVIROMENTCREATOR_VASS_ZOLTÁN_P0E4P2\ENVIROMENTCREATOR\DEBUG\PCH.OBJ|C:\USERS\ZOLTÁN\DESKTOP\ENVIROMENTCREATOR_VASS_ZOLTÁN_P0E4P2\ENVIROMENTCREATOR\DEBUG\XAMLTYPEINFO.G.OBJ|C:\USERS\ZOLTÁN\DESKTOP\ENVIROMENTCREATOR_VASS_ZOLTÁN_P0E4P2\ENVIROMENTCREATOR\DEBUG\XAMLTYPEINFO.IMPL.G.OBJ
C:\WINDOWS\GLOBALIZATION\SORTING\SORTDEFAULT.NLS
C:\PROGRAM FILES (X86)\WINDOWS KITS\10\LIB\10.0.14393.0\UM\X86\D2D1.LIB
C:\PROGRAM FILES (X86)\WINDOWS KITS\10\LIB\10.0.14393.0\UM\X86\D3D11.LIB
C:\PROGRAM FILES (X86)\WINDOWS KITS\10\LIB\10.0.14393.0\UM\X86\DXGI.LIB
C:\PROGRAM FILES (X86)\WINDOWS KITS\10\LIB\10.0.14393.0\UM\X86\WINDOWSCODECS.LIB
C:\PROGRAM FILES (X86)\WINDOWS KITS\10\LIB\10.0.14393.0\UM\X86\DWRITE.LIB
C:\USERS\ZOLTáN\DESKTOP\ENVIROMENTCREATOR_VASS_ZOLTáN_P0E4P2\DEBUG\BASEENGINE\BASEENGINE.LIB
C:\PROGRAM FILES (X86)\WINDOWS KITS\10\LIB\10.0.14393.0\UM\X86\WINDOWSAPP.LIB
C:\USERS\ZOLTáN\DESKTOP\ENVIROMENTCREATOR_VASS_ZOLTáN_P0E4P2\ENVIROMENTCREATOR\DEBUG\APP.XAML.OBJ
C:\USERS\ZOLTáN\DESKTOP\ENVIROMENTCREATOR_VASS_ZOLTáN_P0E4P2\ENVIROMENTCREATOR\DEBUG\CONTROLCAMERAANDLIGHTPAGE.XAML.OBJ
C:\USERS\ZOLTáN\DESKTOP\ENVIROMENTCREATOR_VASS_ZOLTáN_P0E4P2\ENVIROMENTCREATOR\DEBUG\CONTROLCONTENTPAGE.XAML.OBJ
C:\USERS\ZOLTáN\DESKTOP\ENVIROMENTCREATOR_VASS_ZOLTáN_P0E4P2\ENVIROMENTCREATOR\DEBUG\CONTROLMODELPAGE.XAML.OBJ
C:\USERS\ZOLTáN\DESKTOP\ENVIROMENTCREATOR_VASS_ZOLTáN_P0E4P2\ENVIROMENTCREATOR\DEBUG\ENVIROMENTCREATORMAIN.OBJ
C:\USERS\ZOLTáN\DESKTOP\ENVIROMENTCREATOR_VASS_ZOLTáN_P0E4P2\ENVIROMENTCREATOR\DEBUG\DIRECTXPAGE.XAML.OBJ
C:\USERS\ZOLTáN\DESKTOP\ENVIROMENTCREATOR_VASS_ZOLTáN_P0E4P2\ENVIROMENTCREATOR\DEBUG\PCH.OBJ
C:\USERS\ZOLTáN\DESKTOP\ENVIROMENTCREATOR_VASS_ZOLTáN_P0E4P2\ENVIROMENTCREATOR\DEBUG\XAMLTYPEINFO.IMPL.G.OBJ
C:\USERS\ZOLTáN\DESKTOP\ENVIROMENTCREATOR_VASS_ZOLTáN_P0E4P2\ENVIROMENTCREATOR\DEBUG\XAMLTYPEINFO.G.OBJ
E:\PROGRAMS\MICROSOFT VISUAL STUDIO 14.0\VC\LIB\STORE\VCCORLIBD.LIB
C:\PROGRAM FILES (X86)\WINDOWS KITS\10\LIB\10.0.14393.0\UM\X86\UUID.LIB
E:\PROGRAMS\MICROSOFT VISUAL STUDIO 14.0\VC\LIB\STORE\MSVCPRTD.LIB
E:\PROGRAMS\MICROSOFT VISUAL STUDIO 14.0\VC\LIB\STORE\CONCRTD.LIB
E:\PROGRAMS\MICROSOFT VISUAL STUDIO 14.0\VC\LIB\STORE\MSVCRTD.LIB
E:\PROGRAMS\MICROSOFT VISUAL STUDIO 14.0\VC\LIB\STORE\OLDNAMES.LIB
E:\PROGRAMS\MICROSOFT VISUAL STUDIO 14.0\VC\LIB\STORE\VCRUNTIMED.LIB
C:\PROGRAM FILES (X86)\WINDOWS KITS\10\LIB\10.0.14393.0\UCRT\X86\UCRTD.LIB
C:\WINDOWS\SYSTEM32\TZRES.DLL
E:\PROGRAMS\MICROSOFT VISUAL STUDIO 14.0\VC\BIN\1033\LINKUI.DLL
^C:\USERS\ZOLTÁN\DESKTOP\ENVIROMENTCREATOR_VASS_ZOLTÁN_P0E4P2\DEBUG\BASEENGINE\BASEENGINE.LIB|C:\USERS\ZOLTÁN\DESKTOP\ENVIROMENTCREATOR_VASS_ZOLTÁN_P0E4P2\ENVIROMENTCREATOR\DEBUG\APP.XAML.OBJ|C:\USERS\ZOLTÁN\DESKTOP\ENVIROMENTCREATOR_VASS_ZOLTÁN_P0E4P2\ENVIROMENTCREATOR\DEBUG\CONTROLCAMERAANDLIGHTPAGE.XAML.OBJ|C:\USERS\ZOLTÁN\DESKTOP\ENVIROMENTCREATOR_VASS_ZOLTÁN_P0E4P2\ENVIROMENTCREATOR\DEBUG\CONTROLCONTENTPAGE.XAML.OBJ|C:\USERS\ZOLTÁN\DESKTOP\ENVIROMENTCREATOR_VASS_ZOLTÁN_P0E4P2\ENVIROMENTCREATOR\DEBUG\CONTROLMODELPAGE.XAML.OBJ|C:\USERS\ZOLTÁN\DESKTOP\ENVIROMENTCREATOR_VASS_ZOLTÁN_P0E4P2\ENVIROMENTCREATOR\DEBUG\DIRECTXPAGE.XAML.OBJ|C:\USERS\ZOLTÁN\DESKTOP\ENVIROMENTCREATOR_VASS_ZOLTÁN_P0E4P2\ENVIROMENTCREATOR\DEBUG\ENVIROMENTCREATORMAIN.OBJ|C:\USERS\ZOLTÁN\DESKTOP\ENVIROMENTCREATOR_VASS_ZOLTÁN_P0E4P2\ENVIROMENTCREATOR\DEBUG\PCH.OBJ|C:\USERS\ZOLTÁN\DESKTOP\ENVIROMENTCREATOR_VASS_ZOLTÁN_P0E4P2\ENVIROMENTCREATOR\DEBUG\XAMLTYPEINFO.IMPL.G.OBJ|C:\USERS\ZOLTÁN\DESKTOP\ENVIROMENTCREATOR_VASS_ZOLTÁN_P0E4P2\ENVIROMENTCREATOR\__WINMD_ONLY__
C:\WINDOWS\GLOBALIZATION\SORTING\SORTDEFAULT.NLS
C:\PROGRAM FILES (X86)\WINDOWS KITS\10\LIB\10.0.14393.0\UM\X86\D2D1.LIB
C:\PROGRAM FILES (X86)\WINDOWS KITS\10\LIB\10.0.14393.0\UM\X86\D3D11.LIB
C:\PROGRAM FILES (X86)\WINDOWS KITS\10\LIB\10.0.14393.0\UM\X86\DXGI.LIB
C:\PROGRAM FILES (X86)\WINDOWS KITS\10\LIB\10.0.14393.0\UM\X86\WINDOWSCODECS.LIB
C:\PROGRAM FILES (X86)\WINDOWS KITS\10\LIB\10.0.14393.0\UM\X86\DWRITE.LIB
C:\USERS\ZOLTáN\DESKTOP\ENVIROMENTCREATOR_VASS_ZOLTáN_P0E4P2\DEBUG\BASEENGINE\BASEENGINE.LIB
C:\PROGRAM FILES (X86)\WINDOWS KITS\10\LIB\10.0.14393.0\UM\X86\WINDOWSAPP.LIB
C:\USERS\ZOLTáN\DESKTOP\ENVIROMENTCREATOR_VASS_ZOLTáN_P0E4P2\ENVIROMENTCREATOR\DEBUG\APP.XAML.OBJ
C:\USERS\ZOLTáN\DESKTOP\ENVIROMENTCREATOR_VASS_ZOLTáN_P0E4P2\ENVIROMENTCREATOR\DEBUG\CONTROLCAMERAANDLIGHTPAGE.XAML.OBJ
C:\USERS\ZOLTáN\DESKTOP\ENVIROMENTCREATOR_VASS_ZOLTáN_P0E4P2\ENVIROMENTCREATOR\DEBUG\CONTROLCONTENTPAGE.XAML.OBJ
C:\USERS\ZOLTáN\DESKTOP\ENVIROMENTCREATOR_VASS_ZOLTáN_P0E4P2\ENVIROMENTCREATOR\DEBUG\CONTROLMODELPAGE.XAML.OBJ
C:\USERS\ZOLTáN\DESKTOP\ENVIROMENTCREATOR_VASS_ZOLTáN_P0E4P2\ENVIROMENTCREATOR\DEBUG\ENVIROMENTCREATORMAIN.OBJ
C:\USERS\ZOLTáN\DESKTOP\ENVIROMENTCREATOR_VASS_ZOLTáN_P0E4P2\ENVIROMENTCREATOR\DEBUG\DIRECTXPAGE.XAML.OBJ
C:\USERS\ZOLTáN\DESKTOP\ENVIROMENTCREATOR_VASS_ZOLTáN_P0E4P2\ENVIROMENTCREATOR\DEBUG\PCH.OBJ
C:\USERS\ZOLTáN\DESKTOP\ENVIROMENTCREATOR_VASS_ZOLTáN_P0E4P2\ENVIROMENTCREATOR\DEBUG\XAMLTYPEINFO.IMPL.G.OBJ
C:\WINDOWS\MICROSOFT.NET\FRAMEWORK\V2.0.50727\MSCORWKS.DLL
C:\WINDOWS\MICROSOFT.NET\FRAMEWORK\V4.0.30319\CLR.DLL
E:\PROGRAMS\MICROSOFT VISUAL STUDIO 14.0\VC\BIN\LINK.EXE.CONFIG
E:\PROGRAMS\MICROSOFT VISUAL STUDIO 14.0\VC\LIB\STORE\VCCORLIBD.LIB
C:\PROGRAM FILES (X86)\WINDOWS KITS\10\LIB\10.0.14393.0\UM\X86\UUID.LIB
E:\PROGRAMS\MICROSOFT VISUAL STUDIO 14.0\VC\LIB\STORE\MSVCPRTD.LIB
E:\PROGRAMS\MICROSOFT VISUAL STUDIO 14.0\VC\LIB\STORE\CONCRTD.LIB
E:\PROGRAMS\MICROSOFT VISUAL STUDIO 14.0\VC\LIB\STORE\MSVCRTD.LIB
E:\PROGRAMS\MICROSOFT VISUAL STUDIO 14.0\VC\LIB\STORE\OLDNAMES.LIB
E:\PROGRAMS\MICROSOFT VISUAL STUDIO 14.0\VC\LIB\STORE\VCRUNTIMED.LIB
C:\PROGRAM FILES (X86)\WINDOWS KITS\10\LIB\10.0.14393.0\UCRT\X86\UCRTD.LIB
C:\USERS\ZOLTáN\DESKTOP\ENVIROMENTCREATOR_VASS_ZOLTáN_P0E4P2\DEBUG\ENVIROMENTCREATOR\ENVIROMENTCREATOR.WINMD
C:\WINDOWS\SYSTEM32\TZRES.DLL
