^C:\USERS\ZOLTÁN\DESKTOP\ENVIROMENTCREATOR_VASS_ZOLTÁN_P0E4P2\BASEENGINE\PCH.CPP
/c /I"C:\USERS\ZOLTÁN\DESKTOP\ENVIROMENTCREATOR_VASS_ZOLTÁN_P0E4P2\BASEENGINE\\" /I"GENERATED FILES\\" /IDEBUG\ /ZI /ZW /ZW:nostdlib /nologo /W3 /WX- /sdl /Od /Oy- /D _WINDLL /D _UNICODE /D UNICODE /D _DEBUG /D WINAPI_FAMILY=WINAPI_FAMILY_APP /D __WRL_NO_DEFAULT_LIB__ /Gm- /EHsc /RTC1 /MDd /GS /fp:precise /Zc:wchar_t /Zc:forScope /Zc:inline /Yc"pch.h" /Fp"DEBUG\BASEENGINE.PCH" /Fo"DEBUG\\" /Fd"DEBUG\VC140.PDB" /Gd /TP /FU"E:\PROGRAMS\MICROSOFT VISUAL STUDIO 14.0\VC\LIB\STORE\REFERENCES\PLATFORM.WINMD" /FU"C:\PROGRAM FILES (X86)\WINDOWS KITS\10\REFERENCES\WINDOWS.APPLICATIONMODEL.CALLS.CALLSVOIPCONTRACT\1.0.0.0\WINDOWS.APPLICATIONMODEL.CALLS.CALLSVOIPCONTRACT.WINMD" /FU"C:\PROGRAM FILES (X86)\WINDOWS KITS\10\REFERENCES\WINDOWS.APPLICATIONMODEL.SOCIALINFO.SOCIALINFOCONTRACT\1.0.0.0\WINDOWS.APPLICATIONMODEL.SOCIALINFO.SOCIALINFOCONTRACT.WINMD" /FU"C:\PROGRAM FILES (X86)\WINDOWS KITS\10\REFERENCES\WINDOWS.DEVICES.DEVICESLOWLEVELCONTRACT\2.0.0.0\WINDOWS.DEVICES.DEVICESLOWLEVELCONTRACT.WINMD" /FU"C:\PROGRAM FILES (X86)\WINDOWS KITS\10\REFERENCES\WINDOWS.DEVICES.PRINTERS.PRINTERSCONTRACT\1.0.0.0\WINDOWS.DEVICES.PRINTERS.PRINTERSCONTRACT.WINMD" /FU"C:\PROGRAM FILES (X86)\WINDOWS KITS\10\REFERENCES\WINDOWS.FOUNDATION.FOUNDATIONCONTRACT\2.0.0.0\WINDOWS.FOUNDATION.FOUNDATIONCONTRACT.WINMD" /FU"C:\PROGRAM FILES (X86)\WINDOWS KITS\10\REFERENCES\WINDOWS.FOUNDATION.UNIVERSALAPICONTRACT\3.0.0.0\WINDOWS.FOUNDATION.UNIVERSALAPICONTRACT.WINMD" /FU"C:\PROGRAM FILES (X86)\WINDOWS KITS\10\REFERENCES\WINDOWS.GRAPHICS.PRINTING3D.PRINTING3DCONTRACT\3.0.0.0\WINDOWS.GRAPHICS.PRINTING3D.PRINTING3DCONTRACT.WINMD" /FU"C:\PROGRAM FILES (X86)\WINDOWS KITS\10\REFERENCES\WINDOWS.NETWORKING.CONNECTIVITY.WWANCONTRACT\1.0.0.0\WINDOWS.NETWORKING.CONNECTIVITY.WWANCONTRACT.WINMD" /FU"C:\PROGRAM FILES (X86)\WINDOWS KITS\10\REFERENCES\WINDOWS.SERVICES.STORE.STORECONTRACT\1.0.0.0\WINDOWS.SERVICES.STORE.STORECONTRACT.WINMD" /FU"C:\PROGRAM FILES (X86)\WINDOWS KITS\10\REFERENCES\WINDOWS.SYSTEM.PROFILE.PROFILEHARDWARETOKENCONTRACT\1.0.0.0\WINDOWS.SYSTEM.PROFILE.PROFILEHARDWARETOKENCONTRACT.WINMD" /FU"C:\PROGRAM FILES (X86)\WINDOWS KITS\10\REFERENCES\WINDOWS.SYSTEM.PROFILE.PROFILESHAREDMODECONTRACT\1.0.0.0\WINDOWS.SYSTEM.PROFILE.PROFILESHAREDMODECONTRACT.WINMD" /FU"C:\PROGRAM FILES (X86)\WINDOWS KITS\10\REFERENCES\WINDOWS.UI.VIEWMANAGEMENT.VIEWMANAGEMENTVIEWSCALINGCONTRACT\1.0.0.0\WINDOWS.UI.VIEWMANAGEMENT.VIEWMANAGEMENTVIEWSCALINGCONTRACT.WINMD" /analyze- C:\USERS\ZOLTÁN\DESKTOP\ENVIROMENTCREATOR_VASS_ZOLTÁN_P0E4P2\BASEENGINE\PCH.CPP
^C:\USERS\ZOLTÁN\DESKTOP\ENVIROMENTCREATOR_VASS_ZOLTÁN_P0E4P2\BASEENGINE\CAMERA.CPP
/c /I"C:\USERS\ZOLTÁN\DESKTOP\ENVIROMENTCREATOR_VASS_ZOLTÁN_P0E4P2\BASEENGINE\\" /I"GENERATED FILES\\" /IDEBUG\ /ZI /ZW /ZW:nostdlib /nologo /W3 /WX- /sdl /Od /Oy- /D _WINDLL /D _UNICODE /D UNICODE /D _DEBUG /D WINAPI_FAMILY=WINAPI_FAMILY_APP /D __WRL_NO_DEFAULT_LIB__ /Gm- /EHsc /RTC1 /MDd /GS /fp:precise /Zc:wchar_t /Zc:forScope /Zc:inline /Yu"pch.h" /Fp"DEBUG\BASEENGINE.PCH" /Fo"DEBUG\\" /Fd"DEBUG\VC140.PDB" /Gd /TP /FU"E:\PROGRAMS\MICROSOFT VISUAL STUDIO 14.0\VC\LIB\STORE\REFERENCES\PLATFORM.WINMD" /FU"C:\PROGRAM FILES (X86)\WINDOWS KITS\10\REFERENCES\WINDOWS.APPLICATIONMODEL.CALLS.CALLSVOIPCONTRACT\1.0.0.0\WINDOWS.APPLICATIONMODEL.CALLS.CALLSVOIPCONTRACT.WINMD" /FU"C:\PROGRAM FILES (X86)\WINDOWS KITS\10\REFERENCES\WINDOWS.APPLICATIONMODEL.SOCIALINFO.SOCIALINFOCONTRACT\1.0.0.0\WINDOWS.APPLICATIONMODEL.SOCIALINFO.SOCIALINFOCONTRACT.WINMD" /FU"C:\PROGRAM FILES (X86)\WINDOWS KITS\10\REFERENCES\WINDOWS.DEVICES.DEVICESLOWLEVELCONTRACT\2.0.0.0\WINDOWS.DEVICES.DEVICESLOWLEVELCONTRACT.WINMD" /FU"C:\PROGRAM FILES (X86)\WINDOWS KITS\10\REFERENCES\WINDOWS.DEVICES.PRINTERS.PRINTERSCONTRACT\1.0.0.0\WINDOWS.DEVICES.PRINTERS.PRINTERSCONTRACT.WINMD" /FU"C:\PROGRAM FILES (X86)\WINDOWS KITS\10\REFERENCES\WINDOWS.FOUNDATION.FOUNDATIONCONTRACT\2.0.0.0\WINDOWS.FOUNDATION.FOUNDATIONCONTRACT.WINMD" /FU"C:\PROGRAM FILES (X86)\WINDOWS KITS\10\REFERENCES\WINDOWS.FOUNDATION.UNIVERSALAPICONTRACT\3.0.0.0\WINDOWS.FOUNDATION.UNIVERSALAPICONTRACT.WINMD" /FU"C:\PROGRAM FILES (X86)\WINDOWS KITS\10\REFERENCES\WINDOWS.GRAPHICS.PRINTING3D.PRINTING3DCONTRACT\3.0.0.0\WINDOWS.GRAPHICS.PRINTING3D.PRINTING3DCONTRACT.WINMD" /FU"C:\PROGRAM FILES (X86)\WINDOWS KITS\10\REFERENCES\WINDOWS.NETWORKING.CONNECTIVITY.WWANCONTRACT\1.0.0.0\WINDOWS.NETWORKING.CONNECTIVITY.WWANCONTRACT.WINMD" /FU"C:\PROGRAM FILES (X86)\WINDOWS KITS\10\REFERENCES\WINDOWS.SERVICES.STORE.STORECONTRACT\1.0.0.0\WINDOWS.SERVICES.STORE.STORECONTRACT.WINMD" /FU"C:\PROGRAM FILES (X86)\WINDOWS KITS\10\REFERENCES\WINDOWS.SYSTEM.PROFILE.PROFILEHARDWARETOKENCONTRACT\1.0.0.0\WINDOWS.SYSTEM.PROFILE.PROFILEHARDWARETOKENCONTRACT.WINMD" /FU"C:\PROGRAM FILES (X86)\WINDOWS KITS\10\REFERENCES\WINDOWS.SYSTEM.PROFILE.PROFILESHAREDMODECONTRACT\1.0.0.0\WINDOWS.SYSTEM.PROFILE.PROFILESHAREDMODECONTRACT.WINMD" /FU"C:\PROGRAM FILES (X86)\WINDOWS KITS\10\REFERENCES\WINDOWS.UI.VIEWMANAGEMENT.VIEWMANAGEMENTVIEWSCALINGCONTRACT\1.0.0.0\WINDOWS.UI.VIEWMANAGEMENT.VIEWMANAGEMENTVIEWSCALINGCONTRACT.WINMD" /analyze- C:\USERS\ZOLTÁN\DESKTOP\ENVIROMENTCREATOR_VASS_ZOLTÁN_P0E4P2\BASEENGINE\CAMERA.CPP
^C:\USERS\ZOLTÁN\DESKTOP\ENVIROMENTCREATOR_VASS_ZOLTÁN_P0E4P2\BASEENGINE\CONTENT.CPP
/c /I"C:\USERS\ZOLTÁN\DESKTOP\ENVIROMENTCREATOR_VASS_ZOLTÁN_P0E4P2\BASEENGINE\\" /I"GENERATED FILES\\" /IDEBUG\ /ZI /ZW /ZW:nostdlib /nologo /W3 /WX- /sdl /Od /Oy- /D _WINDLL /D _UNICODE /D UNICODE /D _DEBUG /D WINAPI_FAMILY=WINAPI_FAMILY_APP /D __WRL_NO_DEFAULT_LIB__ /Gm- /EHsc /RTC1 /MDd /GS /fp:precise /Zc:wchar_t /Zc:forScope /Zc:inline /Yu"pch.h" /Fp"DEBUG\BASEENGINE.PCH" /Fo"DEBUG\\" /Fd"DEBUG\VC140.PDB" /Gd /TP /FU"E:\PROGRAMS\MICROSOFT VISUAL STUDIO 14.0\VC\LIB\STORE\REFERENCES\PLATFORM.WINMD" /FU"C:\PROGRAM FILES (X86)\WINDOWS KITS\10\REFERENCES\WINDOWS.APPLICATIONMODEL.CALLS.CALLSVOIPCONTRACT\1.0.0.0\WINDOWS.APPLICATIONMODEL.CALLS.CALLSVOIPCONTRACT.WINMD" /FU"C:\PROGRAM FILES (X86)\WINDOWS KITS\10\REFERENCES\WINDOWS.APPLICATIONMODEL.SOCIALINFO.SOCIALINFOCONTRACT\1.0.0.0\WINDOWS.APPLICATIONMODEL.SOCIALINFO.SOCIALINFOCONTRACT.WINMD" /FU"C:\PROGRAM FILES (X86)\WINDOWS KITS\10\REFERENCES\WINDOWS.DEVICES.DEVICESLOWLEVELCONTRACT\2.0.0.0\WINDOWS.DEVICES.DEVICESLOWLEVELCONTRACT.WINMD" /FU"C:\PROGRAM FILES (X86)\WINDOWS KITS\10\REFERENCES\WINDOWS.DEVICES.PRINTERS.PRINTERSCONTRACT\1.0.0.0\WINDOWS.DEVICES.PRINTERS.PRINTERSCONTRACT.WINMD" /FU"C:\PROGRAM FILES (X86)\WINDOWS KITS\10\REFERENCES\WINDOWS.FOUNDATION.FOUNDATIONCONTRACT\2.0.0.0\WINDOWS.FOUNDATION.FOUNDATIONCONTRACT.WINMD" /FU"C:\PROGRAM FILES (X86)\WINDOWS KITS\10\REFERENCES\WINDOWS.FOUNDATION.UNIVERSALAPICONTRACT\3.0.0.0\WINDOWS.FOUNDATION.UNIVERSALAPICONTRACT.WINMD" /FU"C:\PROGRAM FILES (X86)\WINDOWS KITS\10\REFERENCES\WINDOWS.GRAPHICS.PRINTING3D.PRINTING3DCONTRACT\3.0.0.0\WINDOWS.GRAPHICS.PRINTING3D.PRINTING3DCONTRACT.WINMD" /FU"C:\PROGRAM FILES (X86)\WINDOWS KITS\10\REFERENCES\WINDOWS.NETWORKING.CONNECTIVITY.WWANCONTRACT\1.0.0.0\WINDOWS.NETWORKING.CONNECTIVITY.WWANCONTRACT.WINMD" /FU"C:\PROGRAM FILES (X86)\WINDOWS KITS\10\REFERENCES\WINDOWS.SERVICES.STORE.STORECONTRACT\1.0.0.0\WINDOWS.SERVICES.STORE.STORECONTRACT.WINMD" /FU"C:\PROGRAM FILES (X86)\WINDOWS KITS\10\REFERENCES\WINDOWS.SYSTEM.PROFILE.PROFILEHARDWARETOKENCONTRACT\1.0.0.0\WINDOWS.SYSTEM.PROFILE.PROFILEHARDWARETOKENCONTRACT.WINMD" /FU"C:\PROGRAM FILES (X86)\WINDOWS KITS\10\REFERENCES\WINDOWS.SYSTEM.PROFILE.PROFILESHAREDMODECONTRACT\1.0.0.0\WINDOWS.SYSTEM.PROFILE.PROFILESHAREDMODECONTRACT.WINMD" /FU"C:\PROGRAM FILES (X86)\WINDOWS KITS\10\REFERENCES\WINDOWS.UI.VIEWMANAGEMENT.VIEWMANAGEMENTVIEWSCALINGCONTRACT\1.0.0.0\WINDOWS.UI.VIEWMANAGEMENT.VIEWMANAGEMENTVIEWSCALINGCONTRACT.WINMD" /analyze- C:\USERS\ZOLTÁN\DESKTOP\ENVIROMENTCREATOR_VASS_ZOLTÁN_P0E4P2\BASEENGINE\CONTENT.CPP
^C:\USERS\ZOLTÁN\DESKTOP\ENVIROMENTCREATOR_VASS_ZOLTÁN_P0E4P2\BASEENGINE\CONTEXT.CPP
/c /I"C:\USERS\ZOLTÁN\DESKTOP\ENVIROMENTCREATOR_VASS_ZOLTÁN_P0E4P2\BASEENGINE\\" /I"GENERATED FILES\\" /IDEBUG\ /ZI /ZW /ZW:nostdlib /nologo /W3 /WX- /sdl /Od /Oy- /D _WINDLL /D _UNICODE /D UNICODE /D _DEBUG /D WINAPI_FAMILY=WINAPI_FAMILY_APP /D __WRL_NO_DEFAULT_LIB__ /Gm- /EHsc /RTC1 /MDd /GS /fp:precise /Zc:wchar_t /Zc:forScope /Zc:inline /Yu"pch.h" /Fp"DEBUG\BASEENGINE.PCH" /Fo"DEBUG\\" /Fd"DEBUG\VC140.PDB" /Gd /TP /FU"E:\PROGRAMS\MICROSOFT VISUAL STUDIO 14.0\VC\LIB\STORE\REFERENCES\PLATFORM.WINMD" /FU"C:\PROGRAM FILES (X86)\WINDOWS KITS\10\REFERENCES\WINDOWS.APPLICATIONMODEL.CALLS.CALLSVOIPCONTRACT\1.0.0.0\WINDOWS.APPLICATIONMODEL.CALLS.CALLSVOIPCONTRACT.WINMD" /FU"C:\PROGRAM FILES (X86)\WINDOWS KITS\10\REFERENCES\WINDOWS.APPLICATIONMODEL.SOCIALINFO.SOCIALINFOCONTRACT\1.0.0.0\WINDOWS.APPLICATIONMODEL.SOCIALINFO.SOCIALINFOCONTRACT.WINMD" /FU"C:\PROGRAM FILES (X86)\WINDOWS KITS\10\REFERENCES\WINDOWS.DEVICES.DEVICESLOWLEVELCONTRACT\2.0.0.0\WINDOWS.DEVICES.DEVICESLOWLEVELCONTRACT.WINMD" /FU"C:\PROGRAM FILES (X86)\WINDOWS KITS\10\REFERENCES\WINDOWS.DEVICES.PRINTERS.PRINTERSCONTRACT\1.0.0.0\WINDOWS.DEVICES.PRINTERS.PRINTERSCONTRACT.WINMD" /FU"C:\PROGRAM FILES (X86)\WINDOWS KITS\10\REFERENCES\WINDOWS.FOUNDATION.FOUNDATIONCONTRACT\2.0.0.0\WINDOWS.FOUNDATION.FOUNDATIONCONTRACT.WINMD" /FU"C:\PROGRAM FILES (X86)\WINDOWS KITS\10\REFERENCES\WINDOWS.FOUNDATION.UNIVERSALAPICONTRACT\3.0.0.0\WINDOWS.FOUNDATION.UNIVERSALAPICONTRACT.WINMD" /FU"C:\PROGRAM FILES (X86)\WINDOWS KITS\10\REFERENCES\WINDOWS.GRAPHICS.PRINTING3D.PRINTING3DCONTRACT\3.0.0.0\WINDOWS.GRAPHICS.PRINTING3D.PRINTING3DCONTRACT.WINMD" /FU"C:\PROGRAM FILES (X86)\WINDOWS KITS\10\REFERENCES\WINDOWS.NETWORKING.CONNECTIVITY.WWANCONTRACT\1.0.0.0\WINDOWS.NETWORKING.CONNECTIVITY.WWANCONTRACT.WINMD" /FU"C:\PROGRAM FILES (X86)\WINDOWS KITS\10\REFERENCES\WINDOWS.SERVICES.STORE.STORECONTRACT\1.0.0.0\WINDOWS.SERVICES.STORE.STORECONTRACT.WINMD" /FU"C:\PROGRAM FILES (X86)\WINDOWS KITS\10\REFERENCES\WINDOWS.SYSTEM.PROFILE.PROFILEHARDWARETOKENCONTRACT\1.0.0.0\WINDOWS.SYSTEM.PROFILE.PROFILEHARDWARETOKENCONTRACT.WINMD" /FU"C:\PROGRAM FILES (X86)\WINDOWS KITS\10\REFERENCES\WINDOWS.SYSTEM.PROFILE.PROFILESHAREDMODECONTRACT\1.0.0.0\WINDOWS.SYSTEM.PROFILE.PROFILESHAREDMODECONTRACT.WINMD" /FU"C:\PROGRAM FILES (X86)\WINDOWS KITS\10\REFERENCES\WINDOWS.UI.VIEWMANAGEMENT.VIEWMANAGEMENTVIEWSCALINGCONTRACT\1.0.0.0\WINDOWS.UI.VIEWMANAGEMENT.VIEWMANAGEMENTVIEWSCALINGCONTRACT.WINMD" /analyze- C:\USERS\ZOLTÁN\DESKTOP\ENVIROMENTCREATOR_VASS_ZOLTÁN_P0E4P2\BASEENGINE\CONTEXT.CPP
^C:\USERS\ZOLTÁN\DESKTOP\ENVIROMENTCREATOR_VASS_ZOLTÁN_P0E4P2\BASEENGINE\DLLMAIN.CPP
/c /I"C:\USERS\ZOLTÁN\DESKTOP\ENVIROMENTCREATOR_VASS_ZOLTÁN_P0E4P2\BASEENGINE\\" /I"GENERATED FILES\\" /IDEBUG\ /ZI /ZW /ZW:nostdlib /nologo /W3 /WX- /sdl /Od /Oy- /D _WINDLL /D _UNICODE /D UNICODE /D _DEBUG /D WINAPI_FAMILY=WINAPI_FAMILY_APP /D __WRL_NO_DEFAULT_LIB__ /Gm- /EHsc /RTC1 /MDd /GS /fp:precise /Zc:wchar_t /Zc:forScope /Zc:inline /Yu"pch.h" /Fp"DEBUG\BASEENGINE.PCH" /Fo"DEBUG\\" /Fd"DEBUG\VC140.PDB" /Gd /TP /FU"E:\PROGRAMS\MICROSOFT VISUAL STUDIO 14.0\VC\LIB\STORE\REFERENCES\PLATFORM.WINMD" /FU"C:\PROGRAM FILES (X86)\WINDOWS KITS\10\REFERENCES\WINDOWS.APPLICATIONMODEL.CALLS.CALLSVOIPCONTRACT\1.0.0.0\WINDOWS.APPLICATIONMODEL.CALLS.CALLSVOIPCONTRACT.WINMD" /FU"C:\PROGRAM FILES (X86)\WINDOWS KITS\10\REFERENCES\WINDOWS.APPLICATIONMODEL.SOCIALINFO.SOCIALINFOCONTRACT\1.0.0.0\WINDOWS.APPLICATIONMODEL.SOCIALINFO.SOCIALINFOCONTRACT.WINMD" /FU"C:\PROGRAM FILES (X86)\WINDOWS KITS\10\REFERENCES\WINDOWS.DEVICES.DEVICESLOWLEVELCONTRACT\2.0.0.0\WINDOWS.DEVICES.DEVICESLOWLEVELCONTRACT.WINMD" /FU"C:\PROGRAM FILES (X86)\WINDOWS KITS\10\REFERENCES\WINDOWS.DEVICES.PRINTERS.PRINTERSCONTRACT\1.0.0.0\WINDOWS.DEVICES.PRINTERS.PRINTERSCONTRACT.WINMD" /FU"C:\PROGRAM FILES (X86)\WINDOWS KITS\10\REFERENCES\WINDOWS.FOUNDATION.FOUNDATIONCONTRACT\2.0.0.0\WINDOWS.FOUNDATION.FOUNDATIONCONTRACT.WINMD" /FU"C:\PROGRAM FILES (X86)\WINDOWS KITS\10\REFERENCES\WINDOWS.FOUNDATION.UNIVERSALAPICONTRACT\3.0.0.0\WINDOWS.FOUNDATION.UNIVERSALAPICONTRACT.WINMD" /FU"C:\PROGRAM FILES (X86)\WINDOWS KITS\10\REFERENCES\WINDOWS.GRAPHICS.PRINTING3D.PRINTING3DCONTRACT\3.0.0.0\WINDOWS.GRAPHICS.PRINTING3D.PRINTING3DCONTRACT.WINMD" /FU"C:\PROGRAM FILES (X86)\WINDOWS KITS\10\REFERENCES\WINDOWS.NETWORKING.CONNECTIVITY.WWANCONTRACT\1.0.0.0\WINDOWS.NETWORKING.CONNECTIVITY.WWANCONTRACT.WINMD" /FU"C:\PROGRAM FILES (X86)\WINDOWS KITS\10\REFERENCES\WINDOWS.SERVICES.STORE.STORECONTRACT\1.0.0.0\WINDOWS.SERVICES.STORE.STORECONTRACT.WINMD" /FU"C:\PROGRAM FILES (X86)\WINDOWS KITS\10\REFERENCES\WINDOWS.SYSTEM.PROFILE.PROFILEHARDWARETOKENCONTRACT\1.0.0.0\WINDOWS.SYSTEM.PROFILE.PROFILEHARDWARETOKENCONTRACT.WINMD" /FU"C:\PROGRAM FILES (X86)\WINDOWS KITS\10\REFERENCES\WINDOWS.SYSTEM.PROFILE.PROFILESHAREDMODECONTRACT\1.0.0.0\WINDOWS.SYSTEM.PROFILE.PROFILESHAREDMODECONTRACT.WINMD" /FU"C:\PROGRAM FILES (X86)\WINDOWS KITS\10\REFERENCES\WINDOWS.UI.VIEWMANAGEMENT.VIEWMANAGEMENTVIEWSCALINGCONTRACT\1.0.0.0\WINDOWS.UI.VIEWMANAGEMENT.VIEWMANAGEMENTVIEWSCALINGCONTRACT.WINMD" /analyze- C:\USERS\ZOLTÁN\DESKTOP\ENVIROMENTCREATOR_VASS_ZOLTÁN_P0E4P2\BASEENGINE\DLLMAIN.CPP
^C:\USERS\ZOLTÁN\DESKTOP\ENVIROMENTCREATOR_VASS_ZOLTÁN_P0E4P2\BASEENGINE\BASEENGINE.CPP
/c /I"C:\USERS\ZOLTÁN\DESKTOP\ENVIROMENTCREATOR_VASS_ZOLTÁN_P0E4P2\BASEENGINE\\" /I"GENERATED FILES\\" /IDEBUG\ /ZI /ZW /ZW:nostdlib /nologo /W3 /WX- /sdl /Od /Oy- /D _WINDLL /D _UNICODE /D UNICODE /D _DEBUG /D WINAPI_FAMILY=WINAPI_FAMILY_APP /D __WRL_NO_DEFAULT_LIB__ /Gm- /EHsc /RTC1 /MDd /GS /fp:precise /Zc:wchar_t /Zc:forScope /Zc:inline /Yu"pch.h" /Fp"DEBUG\BASEENGINE.PCH" /Fo"DEBUG\\" /Fd"DEBUG\VC140.PDB" /Gd /TP /FU"E:\PROGRAMS\MICROSOFT VISUAL STUDIO 14.0\VC\LIB\STORE\REFERENCES\PLATFORM.WINMD" /FU"C:\PROGRAM FILES (X86)\WINDOWS KITS\10\REFERENCES\WINDOWS.APPLICATIONMODEL.CALLS.CALLSVOIPCONTRACT\1.0.0.0\WINDOWS.APPLICATIONMODEL.CALLS.CALLSVOIPCONTRACT.WINMD" /FU"C:\PROGRAM FILES (X86)\WINDOWS KITS\10\REFERENCES\WINDOWS.APPLICATIONMODEL.SOCIALINFO.SOCIALINFOCONTRACT\1.0.0.0\WINDOWS.APPLICATIONMODEL.SOCIALINFO.SOCIALINFOCONTRACT.WINMD" /FU"C:\PROGRAM FILES (X86)\WINDOWS KITS\10\REFERENCES\WINDOWS.DEVICES.DEVICESLOWLEVELCONTRACT\2.0.0.0\WINDOWS.DEVICES.DEVICESLOWLEVELCONTRACT.WINMD" /FU"C:\PROGRAM FILES (X86)\WINDOWS KITS\10\REFERENCES\WINDOWS.DEVICES.PRINTERS.PRINTERSCONTRACT\1.0.0.0\WINDOWS.DEVICES.PRINTERS.PRINTERSCONTRACT.WINMD" /FU"C:\PROGRAM FILES (X86)\WINDOWS KITS\10\REFERENCES\WINDOWS.FOUNDATION.FOUNDATIONCONTRACT\2.0.0.0\WINDOWS.FOUNDATION.FOUNDATIONCONTRACT.WINMD" /FU"C:\PROGRAM FILES (X86)\WINDOWS KITS\10\REFERENCES\WINDOWS.FOUNDATION.UNIVERSALAPICONTRACT\3.0.0.0\WINDOWS.FOUNDATION.UNIVERSALAPICONTRACT.WINMD" /FU"C:\PROGRAM FILES (X86)\WINDOWS KITS\10\REFERENCES\WINDOWS.GRAPHICS.PRINTING3D.PRINTING3DCONTRACT\3.0.0.0\WINDOWS.GRAPHICS.PRINTING3D.PRINTING3DCONTRACT.WINMD" /FU"C:\PROGRAM FILES (X86)\WINDOWS KITS\10\REFERENCES\WINDOWS.NETWORKING.CONNECTIVITY.WWANCONTRACT\1.0.0.0\WINDOWS.NETWORKING.CONNECTIVITY.WWANCONTRACT.WINMD" /FU"C:\PROGRAM FILES (X86)\WINDOWS KITS\10\REFERENCES\WINDOWS.SERVICES.STORE.STORECONTRACT\1.0.0.0\WINDOWS.SERVICES.STORE.STORECONTRACT.WINMD" /FU"C:\PROGRAM FILES (X86)\WINDOWS KITS\10\REFERENCES\WINDOWS.SYSTEM.PROFILE.PROFILEHARDWARETOKENCONTRACT\1.0.0.0\WINDOWS.SYSTEM.PROFILE.PROFILEHARDWARETOKENCONTRACT.WINMD" /FU"C:\PROGRAM FILES (X86)\WINDOWS KITS\10\REFERENCES\WINDOWS.SYSTEM.PROFILE.PROFILESHAREDMODECONTRACT\1.0.0.0\WINDOWS.SYSTEM.PROFILE.PROFILESHAREDMODECONTRACT.WINMD" /FU"C:\PROGRAM FILES (X86)\WINDOWS KITS\10\REFERENCES\WINDOWS.UI.VIEWMANAGEMENT.VIEWMANAGEMENTVIEWSCALINGCONTRACT\1.0.0.0\WINDOWS.UI.VIEWMANAGEMENT.VIEWMANAGEMENTVIEWSCALINGCONTRACT.WINMD" /analyze- C:\USERS\ZOLTÁN\DESKTOP\ENVIROMENTCREATOR_VASS_ZOLTÁN_P0E4P2\BASEENGINE\BASEENGINE.CPP
^C:\USERS\ZOLTÁN\DESKTOP\ENVIROMENTCREATOR_VASS_ZOLTÁN_P0E4P2\BASEENGINE\GRAPHICS.CPP
/c /I"C:\USERS\ZOLTÁN\DESKTOP\ENVIROMENTCREATOR_VASS_ZOLTÁN_P0E4P2\BASEENGINE\\" /I"GENERATED FILES\\" /IDEBUG\ /ZI /ZW /ZW:nostdlib /nologo /W3 /WX- /sdl /Od /Oy- /D _WINDLL /D _UNICODE /D UNICODE /D _DEBUG /D WINAPI_FAMILY=WINAPI_FAMILY_APP /D __WRL_NO_DEFAULT_LIB__ /Gm- /EHsc /RTC1 /MDd /GS /fp:precise /Zc:wchar_t /Zc:forScope /Zc:inline /Yu"pch.h" /Fp"DEBUG\BASEENGINE.PCH" /Fo"DEBUG\\" /Fd"DEBUG\VC140.PDB" /Gd /TP /FU"E:\PROGRAMS\MICROSOFT VISUAL STUDIO 14.0\VC\LIB\STORE\REFERENCES\PLATFORM.WINMD" /FU"C:\PROGRAM FILES (X86)\WINDOWS KITS\10\REFERENCES\WINDOWS.APPLICATIONMODEL.CALLS.CALLSVOIPCONTRACT\1.0.0.0\WINDOWS.APPLICATIONMODEL.CALLS.CALLSVOIPCONTRACT.WINMD" /FU"C:\PROGRAM FILES (X86)\WINDOWS KITS\10\REFERENCES\WINDOWS.APPLICATIONMODEL.SOCIALINFO.SOCIALINFOCONTRACT\1.0.0.0\WINDOWS.APPLICATIONMODEL.SOCIALINFO.SOCIALINFOCONTRACT.WINMD" /FU"C:\PROGRAM FILES (X86)\WINDOWS KITS\10\REFERENCES\WINDOWS.DEVICES.DEVICESLOWLEVELCONTRACT\2.0.0.0\WINDOWS.DEVICES.DEVICESLOWLEVELCONTRACT.WINMD" /FU"C:\PROGRAM FILES (X86)\WINDOWS KITS\10\REFERENCES\WINDOWS.DEVICES.PRINTERS.PRINTERSCONTRACT\1.0.0.0\WINDOWS.DEVICES.PRINTERS.PRINTERSCONTRACT.WINMD" /FU"C:\PROGRAM FILES (X86)\WINDOWS KITS\10\REFERENCES\WINDOWS.FOUNDATION.FOUNDATIONCONTRACT\2.0.0.0\WINDOWS.FOUNDATION.FOUNDATIONCONTRACT.WINMD" /FU"C:\PROGRAM FILES (X86)\WINDOWS KITS\10\REFERENCES\WINDOWS.FOUNDATION.UNIVERSALAPICONTRACT\3.0.0.0\WINDOWS.FOUNDATION.UNIVERSALAPICONTRACT.WINMD" /FU"C:\PROGRAM FILES (X86)\WINDOWS KITS\10\REFERENCES\WINDOWS.GRAPHICS.PRINTING3D.PRINTING3DCONTRACT\3.0.0.0\WINDOWS.GRAPHICS.PRINTING3D.PRINTING3DCONTRACT.WINMD" /FU"C:\PROGRAM FILES (X86)\WINDOWS KITS\10\REFERENCES\WINDOWS.NETWORKING.CONNECTIVITY.WWANCONTRACT\1.0.0.0\WINDOWS.NETWORKING.CONNECTIVITY.WWANCONTRACT.WINMD" /FU"C:\PROGRAM FILES (X86)\WINDOWS KITS\10\REFERENCES\WINDOWS.SERVICES.STORE.STORECONTRACT\1.0.0.0\WINDOWS.SERVICES.STORE.STORECONTRACT.WINMD" /FU"C:\PROGRAM FILES (X86)\WINDOWS KITS\10\REFERENCES\WINDOWS.SYSTEM.PROFILE.PROFILEHARDWARETOKENCONTRACT\1.0.0.0\WINDOWS.SYSTEM.PROFILE.PROFILEHARDWARETOKENCONTRACT.WINMD" /FU"C:\PROGRAM FILES (X86)\WINDOWS KITS\10\REFERENCES\WINDOWS.SYSTEM.PROFILE.PROFILESHAREDMODECONTRACT\1.0.0.0\WINDOWS.SYSTEM.PROFILE.PROFILESHAREDMODECONTRACT.WINMD" /FU"C:\PROGRAM FILES (X86)\WINDOWS KITS\10\REFERENCES\WINDOWS.UI.VIEWMANAGEMENT.VIEWMANAGEMENTVIEWSCALINGCONTRACT\1.0.0.0\WINDOWS.UI.VIEWMANAGEMENT.VIEWMANAGEMENTVIEWSCALINGCONTRACT.WINMD" /analyze- C:\USERS\ZOLTÁN\DESKTOP\ENVIROMENTCREATOR_VASS_ZOLTÁN_P0E4P2\BASEENGINE\GRAPHICS.CPP
^C:\USERS\ZOLTÁN\DESKTOP\ENVIROMENTCREATOR_VASS_ZOLTÁN_P0E4P2\BASEENGINE\LIGHT.CPP
/c /I"C:\USERS\ZOLTÁN\DESKTOP\ENVIROMENTCREATOR_VASS_ZOLTÁN_P0E4P2\BASEENGINE\\" /I"GENERATED FILES\\" /IDEBUG\ /ZI /ZW /ZW:nostdlib /nologo /W3 /WX- /sdl /Od /Oy- /D _WINDLL /D _UNICODE /D UNICODE /D _DEBUG /D WINAPI_FAMILY=WINAPI_FAMILY_APP /D __WRL_NO_DEFAULT_LIB__ /Gm- /EHsc /RTC1 /MDd /GS /fp:precise /Zc:wchar_t /Zc:forScope /Zc:inline /Yu"pch.h" /Fp"DEBUG\BASEENGINE.PCH" /Fo"DEBUG\\" /Fd"DEBUG\VC140.PDB" /Gd /TP /FU"E:\PROGRAMS\MICROSOFT VISUAL STUDIO 14.0\VC\LIB\STORE\REFERENCES\PLATFORM.WINMD" /FU"C:\PROGRAM FILES (X86)\WINDOWS KITS\10\REFERENCES\WINDOWS.APPLICATIONMODEL.CALLS.CALLSVOIPCONTRACT\1.0.0.0\WINDOWS.APPLICATIONMODEL.CALLS.CALLSVOIPCONTRACT.WINMD" /FU"C:\PROGRAM FILES (X86)\WINDOWS KITS\10\REFERENCES\WINDOWS.APPLICATIONMODEL.SOCIALINFO.SOCIALINFOCONTRACT\1.0.0.0\WINDOWS.APPLICATIONMODEL.SOCIALINFO.SOCIALINFOCONTRACT.WINMD" /FU"C:\PROGRAM FILES (X86)\WINDOWS KITS\10\REFERENCES\WINDOWS.DEVICES.DEVICESLOWLEVELCONTRACT\2.0.0.0\WINDOWS.DEVICES.DEVICESLOWLEVELCONTRACT.WINMD" /FU"C:\PROGRAM FILES (X86)\WINDOWS KITS\10\REFERENCES\WINDOWS.DEVICES.PRINTERS.PRINTERSCONTRACT\1.0.0.0\WINDOWS.DEVICES.PRINTERS.PRINTERSCONTRACT.WINMD" /FU"C:\PROGRAM FILES (X86)\WINDOWS KITS\10\REFERENCES\WINDOWS.FOUNDATION.FOUNDATIONCONTRACT\2.0.0.0\WINDOWS.FOUNDATION.FOUNDATIONCONTRACT.WINMD" /FU"C:\PROGRAM FILES (X86)\WINDOWS KITS\10\REFERENCES\WINDOWS.FOUNDATION.UNIVERSALAPICONTRACT\3.0.0.0\WINDOWS.FOUNDATION.UNIVERSALAPICONTRACT.WINMD" /FU"C:\PROGRAM FILES (X86)\WINDOWS KITS\10\REFERENCES\WINDOWS.GRAPHICS.PRINTING3D.PRINTING3DCONTRACT\3.0.0.0\WINDOWS.GRAPHICS.PRINTING3D.PRINTING3DCONTRACT.WINMD" /FU"C:\PROGRAM FILES (X86)\WINDOWS KITS\10\REFERENCES\WINDOWS.NETWORKING.CONNECTIVITY.WWANCONTRACT\1.0.0.0\WINDOWS.NETWORKING.CONNECTIVITY.WWANCONTRACT.WINMD" /FU"C:\PROGRAM FILES (X86)\WINDOWS KITS\10\REFERENCES\WINDOWS.SERVICES.STORE.STORECONTRACT\1.0.0.0\WINDOWS.SERVICES.STORE.STORECONTRACT.WINMD" /FU"C:\PROGRAM FILES (X86)\WINDOWS KITS\10\REFERENCES\WINDOWS.SYSTEM.PROFILE.PROFILEHARDWARETOKENCONTRACT\1.0.0.0\WINDOWS.SYSTEM.PROFILE.PROFILEHARDWARETOKENCONTRACT.WINMD" /FU"C:\PROGRAM FILES (X86)\WINDOWS KITS\10\REFERENCES\WINDOWS.SYSTEM.PROFILE.PROFILESHAREDMODECONTRACT\1.0.0.0\WINDOWS.SYSTEM.PROFILE.PROFILESHAREDMODECONTRACT.WINMD" /FU"C:\PROGRAM FILES (X86)\WINDOWS KITS\10\REFERENCES\WINDOWS.UI.VIEWMANAGEMENT.VIEWMANAGEMENTVIEWSCALINGCONTRACT\1.0.0.0\WINDOWS.UI.VIEWMANAGEMENT.VIEWMANAGEMENTVIEWSCALINGCONTRACT.WINMD" /analyze- C:\USERS\ZOLTÁN\DESKTOP\ENVIROMENTCREATOR_VASS_ZOLTÁN_P0E4P2\BASEENGINE\LIGHT.CPP
^C:\USERS\ZOLTÁN\DESKTOP\ENVIROMENTCREATOR_VASS_ZOLTÁN_P0E4P2\BASEENGINE\MESSAGE.CPP
/c /I"C:\USERS\ZOLTÁN\DESKTOP\ENVIROMENTCREATOR_VASS_ZOLTÁN_P0E4P2\BASEENGINE\\" /I"GENERATED FILES\\" /IDEBUG\ /ZI /ZW /ZW:nostdlib /nologo /W3 /WX- /sdl /Od /Oy- /D _WINDLL /D _UNICODE /D UNICODE /D _DEBUG /D WINAPI_FAMILY=WINAPI_FAMILY_APP /D __WRL_NO_DEFAULT_LIB__ /Gm- /EHsc /RTC1 /MDd /GS /fp:precise /Zc:wchar_t /Zc:forScope /Zc:inline /Yu"pch.h" /Fp"DEBUG\BASEENGINE.PCH" /Fo"DEBUG\\" /Fd"DEBUG\VC140.PDB" /Gd /TP /FU"E:\PROGRAMS\MICROSOFT VISUAL STUDIO 14.0\VC\LIB\STORE\REFERENCES\PLATFORM.WINMD" /FU"C:\PROGRAM FILES (X86)\WINDOWS KITS\10\REFERENCES\WINDOWS.APPLICATIONMODEL.CALLS.CALLSVOIPCONTRACT\1.0.0.0\WINDOWS.APPLICATIONMODEL.CALLS.CALLSVOIPCONTRACT.WINMD" /FU"C:\PROGRAM FILES (X86)\WINDOWS KITS\10\REFERENCES\WINDOWS.APPLICATIONMODEL.SOCIALINFO.SOCIALINFOCONTRACT\1.0.0.0\WINDOWS.APPLICATIONMODEL.SOCIALINFO.SOCIALINFOCONTRACT.WINMD" /FU"C:\PROGRAM FILES (X86)\WINDOWS KITS\10\REFERENCES\WINDOWS.DEVICES.DEVICESLOWLEVELCONTRACT\2.0.0.0\WINDOWS.DEVICES.DEVICESLOWLEVELCONTRACT.WINMD" /FU"C:\PROGRAM FILES (X86)\WINDOWS KITS\10\REFERENCES\WINDOWS.DEVICES.PRINTERS.PRINTERSCONTRACT\1.0.0.0\WINDOWS.DEVICES.PRINTERS.PRINTERSCONTRACT.WINMD" /FU"C:\PROGRAM FILES (X86)\WINDOWS KITS\10\REFERENCES\WINDOWS.FOUNDATION.FOUNDATIONCONTRACT\2.0.0.0\WINDOWS.FOUNDATION.FOUNDATIONCONTRACT.WINMD" /FU"C:\PROGRAM FILES (X86)\WINDOWS KITS\10\REFERENCES\WINDOWS.FOUNDATION.UNIVERSALAPICONTRACT\3.0.0.0\WINDOWS.FOUNDATION.UNIVERSALAPICONTRACT.WINMD" /FU"C:\PROGRAM FILES (X86)\WINDOWS KITS\10\REFERENCES\WINDOWS.GRAPHICS.PRINTING3D.PRINTING3DCONTRACT\3.0.0.0\WINDOWS.GRAPHICS.PRINTING3D.PRINTING3DCONTRACT.WINMD" /FU"C:\PROGRAM FILES (X86)\WINDOWS KITS\10\REFERENCES\WINDOWS.NETWORKING.CONNECTIVITY.WWANCONTRACT\1.0.0.0\WINDOWS.NETWORKING.CONNECTIVITY.WWANCONTRACT.WINMD" /FU"C:\PROGRAM FILES (X86)\WINDOWS KITS\10\REFERENCES\WINDOWS.SERVICES.STORE.STORECONTRACT\1.0.0.0\WINDOWS.SERVICES.STORE.STORECONTRACT.WINMD" /FU"C:\PROGRAM FILES (X86)\WINDOWS KITS\10\REFERENCES\WINDOWS.SYSTEM.PROFILE.PROFILEHARDWARETOKENCONTRACT\1.0.0.0\WINDOWS.SYSTEM.PROFILE.PROFILEHARDWARETOKENCONTRACT.WINMD" /FU"C:\PROGRAM FILES (X86)\WINDOWS KITS\10\REFERENCES\WINDOWS.SYSTEM.PROFILE.PROFILESHAREDMODECONTRACT\1.0.0.0\WINDOWS.SYSTEM.PROFILE.PROFILESHAREDMODECONTRACT.WINMD" /FU"C:\PROGRAM FILES (X86)\WINDOWS KITS\10\REFERENCES\WINDOWS.UI.VIEWMANAGEMENT.VIEWMANAGEMENTVIEWSCALINGCONTRACT\1.0.0.0\WINDOWS.UI.VIEWMANAGEMENT.VIEWMANAGEMENTVIEWSCALINGCONTRACT.WINMD" /analyze- C:\USERS\ZOLTÁN\DESKTOP\ENVIROMENTCREATOR_VASS_ZOLTÁN_P0E4P2\BASEENGINE\MESSAGE.CPP
^C:\USERS\ZOLTÁN\DESKTOP\ENVIROMENTCREATOR_VASS_ZOLTÁN_P0E4P2\BASEENGINE\PHYSICS.CPP
/c /I"C:\USERS\ZOLTÁN\DESKTOP\ENVIROMENTCREATOR_VASS_ZOLTÁN_P0E4P2\BASEENGINE\\" /I"GENERATED FILES\\" /IDEBUG\ /ZI /ZW /ZW:nostdlib /nologo /W3 /WX- /sdl /Od /Oy- /D _WINDLL /D _UNICODE /D UNICODE /D _DEBUG /D WINAPI_FAMILY=WINAPI_FAMILY_APP /D __WRL_NO_DEFAULT_LIB__ /Gm- /EHsc /RTC1 /MDd /GS /fp:precise /Zc:wchar_t /Zc:forScope /Zc:inline /Yu"pch.h" /Fp"DEBUG\BASEENGINE.PCH" /Fo"DEBUG\\" /Fd"DEBUG\VC140.PDB" /Gd /TP /FU"E:\PROGRAMS\MICROSOFT VISUAL STUDIO 14.0\VC\LIB\STORE\REFERENCES\PLATFORM.WINMD" /FU"C:\PROGRAM FILES (X86)\WINDOWS KITS\10\REFERENCES\WINDOWS.APPLICATIONMODEL.CALLS.CALLSVOIPCONTRACT\1.0.0.0\WINDOWS.APPLICATIONMODEL.CALLS.CALLSVOIPCONTRACT.WINMD" /FU"C:\PROGRAM FILES (X86)\WINDOWS KITS\10\REFERENCES\WINDOWS.APPLICATIONMODEL.SOCIALINFO.SOCIALINFOCONTRACT\1.0.0.0\WINDOWS.APPLICATIONMODEL.SOCIALINFO.SOCIALINFOCONTRACT.WINMD" /FU"C:\PROGRAM FILES (X86)\WINDOWS KITS\10\REFERENCES\WINDOWS.DEVICES.DEVICESLOWLEVELCONTRACT\2.0.0.0\WINDOWS.DEVICES.DEVICESLOWLEVELCONTRACT.WINMD" /FU"C:\PROGRAM FILES (X86)\WINDOWS KITS\10\REFERENCES\WINDOWS.DEVICES.PRINTERS.PRINTERSCONTRACT\1.0.0.0\WINDOWS.DEVICES.PRINTERS.PRINTERSCONTRACT.WINMD" /FU"C:\PROGRAM FILES (X86)\WINDOWS KITS\10\REFERENCES\WINDOWS.FOUNDATION.FOUNDATIONCONTRACT\2.0.0.0\WINDOWS.FOUNDATION.FOUNDATIONCONTRACT.WINMD" /FU"C:\PROGRAM FILES (X86)\WINDOWS KITS\10\REFERENCES\WINDOWS.FOUNDATION.UNIVERSALAPICONTRACT\3.0.0.0\WINDOWS.FOUNDATION.UNIVERSALAPICONTRACT.WINMD" /FU"C:\PROGRAM FILES (X86)\WINDOWS KITS\10\REFERENCES\WINDOWS.GRAPHICS.PRINTING3D.PRINTING3DCONTRACT\3.0.0.0\WINDOWS.GRAPHICS.PRINTING3D.PRINTING3DCONTRACT.WINMD" /FU"C:\PROGRAM FILES (X86)\WINDOWS KITS\10\REFERENCES\WINDOWS.NETWORKING.CONNECTIVITY.WWANCONTRACT\1.0.0.0\WINDOWS.NETWORKING.CONNECTIVITY.WWANCONTRACT.WINMD" /FU"C:\PROGRAM FILES (X86)\WINDOWS KITS\10\REFERENCES\WINDOWS.SERVICES.STORE.STORECONTRACT\1.0.0.0\WINDOWS.SERVICES.STORE.STORECONTRACT.WINMD" /FU"C:\PROGRAM FILES (X86)\WINDOWS KITS\10\REFERENCES\WINDOWS.SYSTEM.PROFILE.PROFILEHARDWARETOKENCONTRACT\1.0.0.0\WINDOWS.SYSTEM.PROFILE.PROFILEHARDWARETOKENCONTRACT.WINMD" /FU"C:\PROGRAM FILES (X86)\WINDOWS KITS\10\REFERENCES\WINDOWS.SYSTEM.PROFILE.PROFILESHAREDMODECONTRACT\1.0.0.0\WINDOWS.SYSTEM.PROFILE.PROFILESHAREDMODECONTRACT.WINMD" /FU"C:\PROGRAM FILES (X86)\WINDOWS KITS\10\REFERENCES\WINDOWS.UI.VIEWMANAGEMENT.VIEWMANAGEMENTVIEWSCALINGCONTRACT\1.0.0.0\WINDOWS.UI.VIEWMANAGEMENT.VIEWMANAGEMENTVIEWSCALINGCONTRACT.WINMD" /analyze- C:\USERS\ZOLTÁN\DESKTOP\ENVIROMENTCREATOR_VASS_ZOLTÁN_P0E4P2\BASEENGINE\PHYSICS.CPP
^C:\USERS\ZOLTÁN\DESKTOP\ENVIROMENTCREATOR_VASS_ZOLTÁN_P0E4P2\BASEENGINE\PLUGINBMP.CPP
/c /I"C:\USERS\ZOLTÁN\DESKTOP\ENVIROMENTCREATOR_VASS_ZOLTÁN_P0E4P2\BASEENGINE\\" /I"GENERATED FILES\\" /IDEBUG\ /ZI /ZW /ZW:nostdlib /nologo /W3 /WX- /sdl /Od /Oy- /D _WINDLL /D _UNICODE /D UNICODE /D _DEBUG /D WINAPI_FAMILY=WINAPI_FAMILY_APP /D __WRL_NO_DEFAULT_LIB__ /Gm- /EHsc /RTC1 /MDd /GS /fp:precise /Zc:wchar_t /Zc:forScope /Zc:inline /Yu"pch.h" /Fp"DEBUG\BASEENGINE.PCH" /Fo"DEBUG\\" /Fd"DEBUG\VC140.PDB" /Gd /TP /FU"E:\PROGRAMS\MICROSOFT VISUAL STUDIO 14.0\VC\LIB\STORE\REFERENCES\PLATFORM.WINMD" /FU"C:\PROGRAM FILES (X86)\WINDOWS KITS\10\REFERENCES\WINDOWS.APPLICATIONMODEL.CALLS.CALLSVOIPCONTRACT\1.0.0.0\WINDOWS.APPLICATIONMODEL.CALLS.CALLSVOIPCONTRACT.WINMD" /FU"C:\PROGRAM FILES (X86)\WINDOWS KITS\10\REFERENCES\WINDOWS.APPLICATIONMODEL.SOCIALINFO.SOCIALINFOCONTRACT\1.0.0.0\WINDOWS.APPLICATIONMODEL.SOCIALINFO.SOCIALINFOCONTRACT.WINMD" /FU"C:\PROGRAM FILES (X86)\WINDOWS KITS\10\REFERENCES\WINDOWS.DEVICES.DEVICESLOWLEVELCONTRACT\2.0.0.0\WINDOWS.DEVICES.DEVICESLOWLEVELCONTRACT.WINMD" /FU"C:\PROGRAM FILES (X86)\WINDOWS KITS\10\REFERENCES\WINDOWS.DEVICES.PRINTERS.PRINTERSCONTRACT\1.0.0.0\WINDOWS.DEVICES.PRINTERS.PRINTERSCONTRACT.WINMD" /FU"C:\PROGRAM FILES (X86)\WINDOWS KITS\10\REFERENCES\WINDOWS.FOUNDATION.FOUNDATIONCONTRACT\2.0.0.0\WINDOWS.FOUNDATION.FOUNDATIONCONTRACT.WINMD" /FU"C:\PROGRAM FILES (X86)\WINDOWS KITS\10\REFERENCES\WINDOWS.FOUNDATION.UNIVERSALAPICONTRACT\3.0.0.0\WINDOWS.FOUNDATION.UNIVERSALAPICONTRACT.WINMD" /FU"C:\PROGRAM FILES (X86)\WINDOWS KITS\10\REFERENCES\WINDOWS.GRAPHICS.PRINTING3D.PRINTING3DCONTRACT\3.0.0.0\WINDOWS.GRAPHICS.PRINTING3D.PRINTING3DCONTRACT.WINMD" /FU"C:\PROGRAM FILES (X86)\WINDOWS KITS\10\REFERENCES\WINDOWS.NETWORKING.CONNECTIVITY.WWANCONTRACT\1.0.0.0\WINDOWS.NETWORKING.CONNECTIVITY.WWANCONTRACT.WINMD" /FU"C:\PROGRAM FILES (X86)\WINDOWS KITS\10\REFERENCES\WINDOWS.SERVICES.STORE.STORECONTRACT\1.0.0.0\WINDOWS.SERVICES.STORE.STORECONTRACT.WINMD" /FU"C:\PROGRAM FILES (X86)\WINDOWS KITS\10\REFERENCES\WINDOWS.SYSTEM.PROFILE.PROFILEHARDWARETOKENCONTRACT\1.0.0.0\WINDOWS.SYSTEM.PROFILE.PROFILEHARDWARETOKENCONTRACT.WINMD" /FU"C:\PROGRAM FILES (X86)\WINDOWS KITS\10\REFERENCES\WINDOWS.SYSTEM.PROFILE.PROFILESHAREDMODECONTRACT\1.0.0.0\WINDOWS.SYSTEM.PROFILE.PROFILESHAREDMODECONTRACT.WINMD" /FU"C:\PROGRAM FILES (X86)\WINDOWS KITS\10\REFERENCES\WINDOWS.UI.VIEWMANAGEMENT.VIEWMANAGEMENTVIEWSCALINGCONTRACT\1.0.0.0\WINDOWS.UI.VIEWMANAGEMENT.VIEWMANAGEMENTVIEWSCALINGCONTRACT.WINMD" /analyze- C:\USERS\ZOLTÁN\DESKTOP\ENVIROMENTCREATOR_VASS_ZOLTÁN_P0E4P2\BASEENGINE\PLUGINBMP.CPP
^C:\USERS\ZOLTÁN\DESKTOP\ENVIROMENTCREATOR_VASS_ZOLTÁN_P0E4P2\BASEENGINE\PLUGINMD3.CPP
/c /I"C:\USERS\ZOLTÁN\DESKTOP\ENVIROMENTCREATOR_VASS_ZOLTÁN_P0E4P2\BASEENGINE\\" /I"GENERATED FILES\\" /IDEBUG\ /ZI /ZW /ZW:nostdlib /nologo /W3 /WX- /sdl /Od /Oy- /D _WINDLL /D _UNICODE /D UNICODE /D _DEBUG /D WINAPI_FAMILY=WINAPI_FAMILY_APP /D __WRL_NO_DEFAULT_LIB__ /Gm- /EHsc /RTC1 /MDd /GS /fp:precise /Zc:wchar_t /Zc:forScope /Zc:inline /Yu"pch.h" /Fp"DEBUG\BASEENGINE.PCH" /Fo"DEBUG\\" /Fd"DEBUG\VC140.PDB" /Gd /TP /FU"E:\PROGRAMS\MICROSOFT VISUAL STUDIO 14.0\VC\LIB\STORE\REFERENCES\PLATFORM.WINMD" /FU"C:\PROGRAM FILES (X86)\WINDOWS KITS\10\REFERENCES\WINDOWS.APPLICATIONMODEL.CALLS.CALLSVOIPCONTRACT\1.0.0.0\WINDOWS.APPLICATIONMODEL.CALLS.CALLSVOIPCONTRACT.WINMD" /FU"C:\PROGRAM FILES (X86)\WINDOWS KITS\10\REFERENCES\WINDOWS.APPLICATIONMODEL.SOCIALINFO.SOCIALINFOCONTRACT\1.0.0.0\WINDOWS.APPLICATIONMODEL.SOCIALINFO.SOCIALINFOCONTRACT.WINMD" /FU"C:\PROGRAM FILES (X86)\WINDOWS KITS\10\REFERENCES\WINDOWS.DEVICES.DEVICESLOWLEVELCONTRACT\2.0.0.0\WINDOWS.DEVICES.DEVICESLOWLEVELCONTRACT.WINMD" /FU"C:\PROGRAM FILES (X86)\WINDOWS KITS\10\REFERENCES\WINDOWS.DEVICES.PRINTERS.PRINTERSCONTRACT\1.0.0.0\WINDOWS.DEVICES.PRINTERS.PRINTERSCONTRACT.WINMD" /FU"C:\PROGRAM FILES (X86)\WINDOWS KITS\10\REFERENCES\WINDOWS.FOUNDATION.FOUNDATIONCONTRACT\2.0.0.0\WINDOWS.FOUNDATION.FOUNDATIONCONTRACT.WINMD" /FU"C:\PROGRAM FILES (X86)\WINDOWS KITS\10\REFERENCES\WINDOWS.FOUNDATION.UNIVERSALAPICONTRACT\3.0.0.0\WINDOWS.FOUNDATION.UNIVERSALAPICONTRACT.WINMD" /FU"C:\PROGRAM FILES (X86)\WINDOWS KITS\10\REFERENCES\WINDOWS.GRAPHICS.PRINTING3D.PRINTING3DCONTRACT\3.0.0.0\WINDOWS.GRAPHICS.PRINTING3D.PRINTING3DCONTRACT.WINMD" /FU"C:\PROGRAM FILES (X86)\WINDOWS KITS\10\REFERENCES\WINDOWS.NETWORKING.CONNECTIVITY.WWANCONTRACT\1.0.0.0\WINDOWS.NETWORKING.CONNECTIVITY.WWANCONTRACT.WINMD" /FU"C:\PROGRAM FILES (X86)\WINDOWS KITS\10\REFERENCES\WINDOWS.SERVICES.STORE.STORECONTRACT\1.0.0.0\WINDOWS.SERVICES.STORE.STORECONTRACT.WINMD" /FU"C:\PROGRAM FILES (X86)\WINDOWS KITS\10\REFERENCES\WINDOWS.SYSTEM.PROFILE.PROFILEHARDWARETOKENCONTRACT\1.0.0.0\WINDOWS.SYSTEM.PROFILE.PROFILEHARDWARETOKENCONTRACT.WINMD" /FU"C:\PROGRAM FILES (X86)\WINDOWS KITS\10\REFERENCES\WINDOWS.SYSTEM.PROFILE.PROFILESHAREDMODECONTRACT\1.0.0.0\WINDOWS.SYSTEM.PROFILE.PROFILESHAREDMODECONTRACT.WINMD" /FU"C:\PROGRAM FILES (X86)\WINDOWS KITS\10\REFERENCES\WINDOWS.UI.VIEWMANAGEMENT.VIEWMANAGEMENTVIEWSCALINGCONTRACT\1.0.0.0\WINDOWS.UI.VIEWMANAGEMENT.VIEWMANAGEMENTVIEWSCALINGCONTRACT.WINMD" /analyze- C:\USERS\ZOLTÁN\DESKTOP\ENVIROMENTCREATOR_VASS_ZOLTÁN_P0E4P2\BASEENGINE\PLUGINMD3.CPP
