^C:\USERS\ZOLTÁN\DESKTOP\ENVIROMENTCREATOR_VASS_ZOLTÁN_P0E4P2\BASEENGINE\PCH.CPP
C:\WINDOWS\GLOBALIZATION\SORTING\SORTDEFAULT.NLS
E:\PROGRAMS\MICROSOFT VISUAL STUDIO 14.0\VC\BIN\1033\CLUI.DLL
C:\WINDOWS\SYSTEM32\TZRES.DLL
C:\WINDOWS\MICROSOFT.NET\FRAMEWORK\V2.0.50727\MSCORWKS.DLL
C:\WINDOWS\MICROSOFT.NET\FRAMEWORK\V4.0.30319\CLR.DLL
E:\PROGRAMS\MICROSOFT VISUAL STUDIO 14.0\VC\BIN\CL.EXE.CONFIG
E:\PROGRAMS\MICROSOFT VISUAL STUDIO 14.0\VC\LIB\STORE\REFERENCES\PLATFORM.WINMD
C:\PROGRAM FILES (X86)\WINDOWS KITS\10\REFERENCES\WINDOWS.FOUNDATION.FOUNDATIONCONTRACT\2.0.0.0\WINDOWS.FOUNDATION.FOUNDATIONCONTRACT.WINMD
C:\PROGRAM FILES (X86)\WINDOWS KITS\10\REFERENCES\WINDOWS.FOUNDATION.UNIVERSALAPICONTRACT\3.0.0.0\WINDOWS.FOUNDATION.UNIVERSALAPICONTRACT.WINMD
C:\PROGRAM FILES (X86)\WINDOWS KITS\10\REFERENCES\WINDOWS.APPLICATIONMODEL.CALLS.CALLSVOIPCONTRACT\1.0.0.0\WINDOWS.APPLICATIONMODEL.CALLS.CALLSVOIPCONTRACT.WINMD
C:\PROGRAM FILES (X86)\WINDOWS KITS\10\REFERENCES\WINDOWS.APPLICATIONMODEL.SOCIALINFO.SOCIALINFOCONTRACT\1.0.0.0\WINDOWS.APPLICATIONMODEL.SOCIALINFO.SOCIALINFOCONTRACT.WINMD
C:\PROGRAM FILES (X86)\WINDOWS KITS\10\REFERENCES\WINDOWS.DEVICES.DEVICESLOWLEVELCONTRACT\2.0.0.0\WINDOWS.DEVICES.DEVICESLOWLEVELCONTRACT.WINMD
C:\PROGRAM FILES (X86)\WINDOWS KITS\10\REFERENCES\WINDOWS.DEVICES.PRINTERS.PRINTERSCONTRACT\1.0.0.0\WINDOWS.DEVICES.PRINTERS.PRINTERSCONTRACT.WINMD
C:\PROGRAM FILES (X86)\WINDOWS KITS\10\REFERENCES\WINDOWS.GRAPHICS.PRINTING3D.PRINTING3DCONTRACT\3.0.0.0\WINDOWS.GRAPHICS.PRINTING3D.PRINTING3DCONTRACT.WINMD
C:\PROGRAM FILES (X86)\WINDOWS KITS\10\REFERENCES\WINDOWS.NETWORKING.CONNECTIVITY.WWANCONTRACT\1.0.0.0\WINDOWS.NETWORKING.CONNECTIVITY.WWANCONTRACT.WINMD
C:\PROGRAM FILES (X86)\WINDOWS KITS\10\REFERENCES\WINDOWS.SERVICES.STORE.STORECONTRACT\1.0.0.0\WINDOWS.SERVICES.STORE.STORECONTRACT.WINMD
C:\PROGRAM FILES (X86)\WINDOWS KITS\10\REFERENCES\WINDOWS.SYSTEM.PROFILE.PROFILEHARDWARETOKENCONTRACT\1.0.0.0\WINDOWS.SYSTEM.PROFILE.PROFILEHARDWARETOKENCONTRACT.WINMD
C:\PROGRAM FILES (X86)\WINDOWS KITS\10\REFERENCES\WINDOWS.SYSTEM.PROFILE.PROFILESHAREDMODECONTRACT\1.0.0.0\WINDOWS.SYSTEM.PROFILE.PROFILESHAREDMODECONTRACT.WINMD
C:\PROGRAM FILES (X86)\WINDOWS KITS\10\REFERENCES\WINDOWS.UI.VIEWMANAGEMENT.VIEWMANAGEMENTVIEWSCALINGCONTRACT\1.0.0.0\WINDOWS.UI.VIEWMANAGEMENT.VIEWMANAGEMENTVIEWSCALINGCONTRACT.WINMD
E:\PROGRAMS\MICROSOFT VISUAL STUDIO 14.0\VC\INCLUDE\VCCORLIB.H
C:\USERS\ZOLTáN\DESKTOP\ENVIROMENTCREATOR_VASS_ZOLTáN_P0E4P2\BASEENGINE\PCH.H
C:\USERS\ZOLTáN\DESKTOP\ENVIROMENTCREATOR_VASS_ZOLTáN_P0E4P2\BASEENGINE\TARGETVER.H
C:\PROGRAM FILES (X86)\WINDOWS KITS\10\INCLUDE\10.0.14393.0\SHARED\SDKDDKVER.H
C:\PROGRAM FILES (X86)\WINDOWS KITS\10\INCLUDE\10.0.14393.0\UM\WINDOWS.H
C:\PROGRAM FILES (X86)\WINDOWS KITS\10\INCLUDE\10.0.14393.0\SHARED\WINAPIFAMILY.H
C:\PROGRAM FILES (X86)\WINDOWS KITS\10\INCLUDE\10.0.14393.0\SHARED\WINPACKAGEFAMILY.H
E:\PROGRAMS\MICROSOFT VISUAL STUDIO 14.0\VC\INCLUDE\EXCPT.H
E:\PROGRAMS\MICROSOFT VISUAL STUDIO 14.0\VC\INCLUDE\VCRUNTIME.H
E:\PROGRAMS\MICROSOFT VISUAL STUDIO 14.0\VC\INCLUDE\SAL.H
E:\PROGRAMS\MICROSOFT VISUAL STUDIO 14.0\VC\INCLUDE\CONCURRENCYSAL.H
E:\PROGRAMS\MICROSOFT VISUAL STUDIO 14.0\VC\INCLUDE\VADEFS.H
E:\PROGRAMS\MICROSOFT VISUAL STUDIO 14.0\VC\INCLUDE\STDARG.H
C:\PROGRAM FILES (X86)\WINDOWS KITS\10\INCLUDE\10.0.14393.0\SHARED\WINDEF.H
C:\PROGRAM FILES (X86)\WINDOWS KITS\10\INCLUDE\10.0.14393.0\SHARED\MINWINDEF.H
C:\PROGRAM FILES (X86)\WINDOWS KITS\10\INCLUDE\10.0.14393.0\SHARED\SPECSTRINGS.H
C:\PROGRAM FILES (X86)\WINDOWS KITS\10\INCLUDE\10.0.14393.0\SHARED\SPECSTRINGS_STRICT.H
C:\PROGRAM FILES (X86)\WINDOWS KITS\10\INCLUDE\10.0.14393.0\SHARED\SPECSTRINGS_UNDEF.H
C:\PROGRAM FILES (X86)\WINDOWS KITS\10\INCLUDE\10.0.14393.0\SHARED\DRIVERSPECS.H
C:\PROGRAM FILES (X86)\WINDOWS KITS\10\INCLUDE\10.0.14393.0\SHARED\SDV_DRIVERSPECS.H
C:\PROGRAM FILES (X86)\WINDOWS KITS\10\INCLUDE\10.0.14393.0\UM\WINNT.H
C:\PROGRAM FILES (X86)\WINDOWS KITS\10\INCLUDE\10.0.14393.0\UCRT\CTYPE.H
C:\PROGRAM FILES (X86)\WINDOWS KITS\10\INCLUDE\10.0.14393.0\UCRT\CORECRT.H
C:\PROGRAM FILES (X86)\WINDOWS KITS\10\INCLUDE\10.0.14393.0\UCRT\CORECRT_WCTYPE.H
C:\PROGRAM FILES (X86)\WINDOWS KITS\10\INCLUDE\10.0.14393.0\SHARED\KERNELSPECS.H
C:\PROGRAM FILES (X86)\WINDOWS KITS\10\INCLUDE\10.0.14393.0\SHARED\BASETSD.H
C:\PROGRAM FILES (X86)\WINDOWS KITS\10\INCLUDE\10.0.14393.0\SHARED\GUIDDEF.H
C:\PROGRAM FILES (X86)\WINDOWS KITS\10\INCLUDE\10.0.14393.0\UCRT\STRING.H
C:\PROGRAM FILES (X86)\WINDOWS KITS\10\INCLUDE\10.0.14393.0\UCRT\CORECRT_MEMORY.H
C:\PROGRAM FILES (X86)\WINDOWS KITS\10\INCLUDE\10.0.14393.0\UCRT\CORECRT_MEMCPY_S.H
C:\PROGRAM FILES (X86)\WINDOWS KITS\10\INCLUDE\10.0.14393.0\UCRT\ERRNO.H
E:\PROGRAMS\MICROSOFT VISUAL STUDIO 14.0\VC\INCLUDE\VCRUNTIME_STRING.H
C:\PROGRAM FILES (X86)\WINDOWS KITS\10\INCLUDE\10.0.14393.0\UCRT\CORECRT_WSTRING.H
C:\PROGRAM FILES (X86)\WINDOWS KITS\10\INCLUDE\10.0.14393.0\SHARED\PSHPACK4.H
C:\PROGRAM FILES (X86)\WINDOWS KITS\10\INCLUDE\10.0.14393.0\SHARED\POPPACK.H
C:\PROGRAM FILES (X86)\WINDOWS KITS\10\INCLUDE\10.0.14393.0\SHARED\PSHPACK2.H
C:\PROGRAM FILES (X86)\WINDOWS KITS\10\INCLUDE\10.0.14393.0\SHARED\PSHPACK8.H
C:\PROGRAM FILES (X86)\WINDOWS KITS\10\INCLUDE\10.0.14393.0\SHARED\APISET.H
C:\PROGRAM FILES (X86)\WINDOWS KITS\10\INCLUDE\10.0.14393.0\SHARED\KTMTYPES.H
C:\PROGRAM FILES (X86)\WINDOWS KITS\10\INCLUDE\10.0.14393.0\UM\WINBASE.H
C:\PROGRAM FILES (X86)\WINDOWS KITS\10\INCLUDE\10.0.14393.0\SHARED\APISETCCONV.H
C:\PROGRAM FILES (X86)\WINDOWS KITS\10\INCLUDE\10.0.14393.0\UM\MINWINBASE.H
C:\PROGRAM FILES (X86)\WINDOWS KITS\10\INCLUDE\10.0.14393.0\UM\PROCESSENV.H
C:\PROGRAM FILES (X86)\WINDOWS KITS\10\INCLUDE\10.0.14393.0\UM\FILEAPI.H
C:\PROGRAM FILES (X86)\WINDOWS KITS\10\INCLUDE\10.0.14393.0\UM\DEBUGAPI.H
C:\PROGRAM FILES (X86)\WINDOWS KITS\10\INCLUDE\10.0.14393.0\UM\UTILAPISET.H
C:\PROGRAM FILES (X86)\WINDOWS KITS\10\INCLUDE\10.0.14393.0\UM\HANDLEAPI.H
C:\PROGRAM FILES (X86)\WINDOWS KITS\10\INCLUDE\10.0.14393.0\UM\ERRHANDLINGAPI.H
C:\PROGRAM FILES (X86)\WINDOWS KITS\10\INCLUDE\10.0.14393.0\UM\FIBERSAPI.H
C:\PROGRAM FILES (X86)\WINDOWS KITS\10\INCLUDE\10.0.14393.0\UM\NAMEDPIPEAPI.H
C:\PROGRAM FILES (X86)\WINDOWS KITS\10\INCLUDE\10.0.14393.0\UM\PROFILEAPI.H
C:\PROGRAM FILES (X86)\WINDOWS KITS\10\INCLUDE\10.0.14393.0\UM\HEAPAPI.H
C:\PROGRAM FILES (X86)\WINDOWS KITS\10\INCLUDE\10.0.14393.0\UM\IOAPISET.H
C:\PROGRAM FILES (X86)\WINDOWS KITS\10\INCLUDE\10.0.14393.0\UM\SYNCHAPI.H
C:\PROGRAM FILES (X86)\WINDOWS KITS\10\INCLUDE\10.0.14393.0\UM\INTERLOCKEDAPI.H
C:\PROGRAM FILES (X86)\WINDOWS KITS\10\INCLUDE\10.0.14393.0\UM\PROCESSTHREADSAPI.H
C:\PROGRAM FILES (X86)\WINDOWS KITS\10\INCLUDE\10.0.14393.0\UM\SYSINFOAPI.H
C:\PROGRAM FILES (X86)\WINDOWS KITS\10\INCLUDE\10.0.14393.0\UM\MEMORYAPI.H
C:\PROGRAM FILES (X86)\WINDOWS KITS\10\INCLUDE\10.0.14393.0\UM\ENCLAVEAPI.H
C:\PROGRAM FILES (X86)\WINDOWS KITS\10\INCLUDE\10.0.14393.0\UM\THREADPOOLLEGACYAPISET.H
C:\PROGRAM FILES (X86)\WINDOWS KITS\10\INCLUDE\10.0.14393.0\UM\THREADPOOLAPISET.H
C:\PROGRAM FILES (X86)\WINDOWS KITS\10\INCLUDE\10.0.14393.0\UM\JOBAPI.H
C:\PROGRAM FILES (X86)\WINDOWS KITS\10\INCLUDE\10.0.14393.0\UM\JOBAPI2.H
C:\PROGRAM FILES (X86)\WINDOWS KITS\10\INCLUDE\10.0.14393.0\UM\WOW64APISET.H
C:\PROGRAM FILES (X86)\WINDOWS KITS\10\INCLUDE\10.0.14393.0\UM\LIBLOADERAPI.H
C:\PROGRAM FILES (X86)\WINDOWS KITS\10\INCLUDE\10.0.14393.0\UM\SECURITYBASEAPI.H
C:\PROGRAM FILES (X86)\WINDOWS KITS\10\INCLUDE\10.0.14393.0\UM\NAMESPACEAPI.H
C:\PROGRAM FILES (X86)\WINDOWS KITS\10\INCLUDE\10.0.14393.0\UM\SYSTEMTOPOLOGYAPI.H
C:\PROGRAM FILES (X86)\WINDOWS KITS\10\INCLUDE\10.0.14393.0\UM\PROCESSTOPOLOGYAPI.H
C:\PROGRAM FILES (X86)\WINDOWS KITS\10\INCLUDE\10.0.14393.0\UM\SECURITYAPPCONTAINER.H
C:\PROGRAM FILES (X86)\WINDOWS KITS\10\INCLUDE\10.0.14393.0\UM\REALTIMEAPISET.H
C:\PROGRAM FILES (X86)\WINDOWS KITS\10\INCLUDE\10.0.14393.0\SHARED\WINERROR.H
C:\PROGRAM FILES (X86)\WINDOWS KITS\10\INCLUDE\10.0.14393.0\UM\TIMEZONEAPI.H
C:\PROGRAM FILES (X86)\WINDOWS KITS\10\INCLUDE\10.0.14393.0\UM\WINGDI.H
C:\PROGRAM FILES (X86)\WINDOWS KITS\10\INCLUDE\10.0.14393.0\SHARED\PSHPACK1.H
C:\PROGRAM FILES (X86)\WINDOWS KITS\10\INCLUDE\10.0.14393.0\UM\WINUSER.H
C:\PROGRAM FILES (X86)\WINDOWS KITS\10\INCLUDE\10.0.14393.0\SHARED\TVOUT.H
C:\PROGRAM FILES (X86)\WINDOWS KITS\10\INCLUDE\10.0.14393.0\UM\WINNLS.H
C:\PROGRAM FILES (X86)\WINDOWS KITS\10\INCLUDE\10.0.14393.0\UM\DATETIMEAPI.H
C:\PROGRAM FILES (X86)\WINDOWS KITS\10\INCLUDE\10.0.14393.0\UM\STRINGAPISET.H
C:\PROGRAM FILES (X86)\WINDOWS KITS\10\INCLUDE\10.0.14393.0\UM\WINCON.H
C:\PROGRAM FILES (X86)\WINDOWS KITS\10\INCLUDE\10.0.14393.0\UM\CONSOLEAPI.H
C:\PROGRAM FILES (X86)\WINDOWS KITS\10\INCLUDE\10.0.14393.0\UM\WINVER.H
C:\PROGRAM FILES (X86)\WINDOWS KITS\10\INCLUDE\10.0.14393.0\UM\VERRSRC.H
C:\PROGRAM FILES (X86)\WINDOWS KITS\10\INCLUDE\10.0.14393.0\UM\WINREG.H
C:\PROGRAM FILES (X86)\WINDOWS KITS\10\INCLUDE\10.0.14393.0\UM\WINNETWK.H
C:\PROGRAM FILES (X86)\WINDOWS KITS\10\INCLUDE\10.0.14393.0\SHARED\STRALIGN.H
C:\PROGRAM FILES (X86)\WINDOWS KITS\10\INCLUDE\10.0.14393.0\UM\WINSVC.H
C:\PROGRAM FILES (X86)\WINDOWS KITS\10\INCLUDE\10.0.14393.0\UM\MCX.H
C:\PROGRAM FILES (X86)\WINDOWS KITS\10\INCLUDE\10.0.14393.0\UM\IMM.H
C:\PROGRAM FILES (X86)\WINDOWS KITS\10\INCLUDE\10.0.14393.0\UM\IME_CMODES.H
C:\PROGRAM FILES (X86)\WINDOWS KITS\10\INCLUDE\10.0.14393.0\WINRT\WRL.H
C:\PROGRAM FILES (X86)\WINDOWS KITS\10\INCLUDE\10.0.14393.0\WINRT\WRL\CLIENT.H
C:\PROGRAM FILES (X86)\WINDOWS KITS\10\INCLUDE\10.0.14393.0\UCRT\STDDEF.H
C:\PROGRAM FILES (X86)\WINDOWS KITS\10\INCLUDE\10.0.14393.0\UM\UNKNWN.H
C:\PROGRAM FILES (X86)\WINDOWS KITS\10\INCLUDE\10.0.14393.0\SHARED\RPC.H
C:\PROGRAM FILES (X86)\WINDOWS KITS\10\INCLUDE\10.0.14393.0\SHARED\RPCDCE.H
C:\PROGRAM FILES (X86)\WINDOWS KITS\10\INCLUDE\10.0.14393.0\SHARED\RPCDCEP.H
C:\PROGRAM FILES (X86)\WINDOWS KITS\10\INCLUDE\10.0.14393.0\UM\RPCNSI.H
C:\PROGRAM FILES (X86)\WINDOWS KITS\10\INCLUDE\10.0.14393.0\SHARED\RPCNTERR.H
C:\PROGRAM FILES (X86)\WINDOWS KITS\10\INCLUDE\10.0.14393.0\SHARED\RPCASYNC.H
C:\PROGRAM FILES (X86)\WINDOWS KITS\10\INCLUDE\10.0.14393.0\SHARED\RPCNDR.H
C:\PROGRAM FILES (X86)\WINDOWS KITS\10\INCLUDE\10.0.14393.0\UM\RPCNSIP.H
C:\PROGRAM FILES (X86)\WINDOWS KITS\10\INCLUDE\10.0.14393.0\SHARED\RPCSAL.H
C:\PROGRAM FILES (X86)\WINDOWS KITS\10\INCLUDE\10.0.14393.0\UM\OLE2.H
C:\PROGRAM FILES (X86)\WINDOWS KITS\10\INCLUDE\10.0.14393.0\UM\OBJBASE.H
C:\PROGRAM FILES (X86)\WINDOWS KITS\10\INCLUDE\10.0.14393.0\UM\COMBASEAPI.H
C:\PROGRAM FILES (X86)\WINDOWS KITS\10\INCLUDE\10.0.14393.0\UCRT\STDLIB.H
C:\PROGRAM FILES (X86)\WINDOWS KITS\10\INCLUDE\10.0.14393.0\UCRT\CORECRT_MALLOC.H
C:\PROGRAM FILES (X86)\WINDOWS KITS\10\INCLUDE\10.0.14393.0\UCRT\CORECRT_SEARCH.H
C:\PROGRAM FILES (X86)\WINDOWS KITS\10\INCLUDE\10.0.14393.0\UCRT\CORECRT_WSTDLIB.H
E:\PROGRAMS\MICROSOFT VISUAL STUDIO 14.0\VC\INCLUDE\LIMITS.H
C:\PROGRAM FILES (X86)\WINDOWS KITS\10\INCLUDE\10.0.14393.0\SHARED\WTYPESBASE.H
C:\PROGRAM FILES (X86)\WINDOWS KITS\10\INCLUDE\10.0.14393.0\UM\UNKNWNBASE.H
C:\PROGRAM FILES (X86)\WINDOWS KITS\10\INCLUDE\10.0.14393.0\UM\OBJIDLBASE.H
C:\PROGRAM FILES (X86)\WINDOWS KITS\10\INCLUDE\10.0.14393.0\UM\CGUID.H
C:\PROGRAM FILES (X86)\WINDOWS KITS\10\INCLUDE\10.0.14393.0\UM\COML2API.H
C:\PROGRAM FILES (X86)\WINDOWS KITS\10\INCLUDE\10.0.14393.0\UM\OBJIDL.H
C:\PROGRAM FILES (X86)\WINDOWS KITS\10\INCLUDE\10.0.14393.0\SHARED\WTYPES.H
C:\PROGRAM FILES (X86)\WINDOWS KITS\10\INCLUDE\10.0.14393.0\UM\PROPIDLBASE.H
C:\PROGRAM FILES (X86)\WINDOWS KITS\10\INCLUDE\10.0.14393.0\UM\OAIDL.H
C:\PROGRAM FILES (X86)\WINDOWS KITS\10\INCLUDE\10.0.14393.0\UM\URLMON.H
C:\PROGRAM FILES (X86)\WINDOWS KITS\10\INCLUDE\10.0.14393.0\UM\OLEIDL.H
C:\PROGRAM FILES (X86)\WINDOWS KITS\10\INCLUDE\10.0.14393.0\UM\SERVPROV.H
C:\PROGRAM FILES (X86)\WINDOWS KITS\10\INCLUDE\10.0.14393.0\UM\MSXML.H
C:\PROGRAM FILES (X86)\WINDOWS KITS\10\INCLUDE\10.0.14393.0\UM\PROPIDL.H
C:\PROGRAM FILES (X86)\WINDOWS KITS\10\INCLUDE\10.0.14393.0\UM\OLEAUTO.H
C:\PROGRAM FILES (X86)\WINDOWS KITS\10\INCLUDE\10.0.14393.0\WINRT\WEAKREFERENCE.H
C:\PROGRAM FILES (X86)\WINDOWS KITS\10\INCLUDE\10.0.14393.0\WINRT\INSPECTABLE.H
C:\PROGRAM FILES (X86)\WINDOWS KITS\10\INCLUDE\10.0.14393.0\WINRT\HSTRING.H
C:\PROGRAM FILES (X86)\WINDOWS KITS\10\INCLUDE\10.0.14393.0\WINRT\ROAPI.H
C:\PROGRAM FILES (X86)\WINDOWS KITS\10\INCLUDE\10.0.14393.0\WINRT\ACTIVATION.H
C:\PROGRAM FILES (X86)\WINDOWS KITS\10\INCLUDE\10.0.14393.0\WINRT\WRL\DEF.H
C:\PROGRAM FILES (X86)\WINDOWS KITS\10\INCLUDE\10.0.14393.0\WINRT\WRL\INTERNAL.H
C:\PROGRAM FILES (X86)\WINDOWS KITS\10\INCLUDE\10.0.14393.0\UCRT\CRTDBG.H
E:\PROGRAMS\MICROSOFT VISUAL STUDIO 14.0\VC\INCLUDE\VCRUNTIME_NEW_DEBUG.H
E:\PROGRAMS\MICROSOFT VISUAL STUDIO 14.0\VC\INCLUDE\VCRUNTIME_NEW.H
C:\PROGRAM FILES (X86)\WINDOWS KITS\10\INCLUDE\10.0.14393.0\WINRT\WRL\IMPLEMENTS.H
C:\PROGRAM FILES (X86)\WINDOWS KITS\10\INCLUDE\10.0.14393.0\WINRT\WINSTRING.H
C:\PROGRAM FILES (X86)\WINDOWS KITS\10\INCLUDE\10.0.14393.0\UCRT\NEW.H
E:\PROGRAMS\MICROSOFT VISUAL STUDIO 14.0\VC\INCLUDE\CRTDEFS.H
E:\PROGRAMS\MICROSOFT VISUAL STUDIO 14.0\VC\INCLUDE\INTRIN.H
E:\PROGRAMS\MICROSOFT VISUAL STUDIO 14.0\VC\INCLUDE\SETJMP.H
E:\PROGRAMS\MICROSOFT VISUAL STUDIO 14.0\VC\INCLUDE\IMMINTRIN.H
E:\PROGRAMS\MICROSOFT VISUAL STUDIO 14.0\VC\INCLUDE\WMMINTRIN.H
E:\PROGRAMS\MICROSOFT VISUAL STUDIO 14.0\VC\INCLUDE\NMMINTRIN.H
E:\PROGRAMS\MICROSOFT VISUAL STUDIO 14.0\VC\INCLUDE\SMMINTRIN.H
E:\PROGRAMS\MICROSOFT VISUAL STUDIO 14.0\VC\INCLUDE\TMMINTRIN.H
E:\PROGRAMS\MICROSOFT VISUAL STUDIO 14.0\VC\INCLUDE\PMMINTRIN.H
E:\PROGRAMS\MICROSOFT VISUAL STUDIO 14.0\VC\INCLUDE\EMMINTRIN.H
E:\PROGRAMS\MICROSOFT VISUAL STUDIO 14.0\VC\INCLUDE\XMMINTRIN.H
E:\PROGRAMS\MICROSOFT VISUAL STUDIO 14.0\VC\INCLUDE\MMINTRIN.H
C:\PROGRAM FILES (X86)\WINDOWS KITS\10\INCLUDE\10.0.14393.0\UCRT\MALLOC.H
E:\PROGRAMS\MICROSOFT VISUAL STUDIO 14.0\VC\INCLUDE\AMMINTRIN.H
E:\PROGRAMS\MICROSOFT VISUAL STUDIO 14.0\VC\INCLUDE\MM3DNOW.H
C:\PROGRAM FILES (X86)\WINDOWS KITS\10\INCLUDE\10.0.14393.0\WINRT\ROERRORAPI.H
C:\PROGRAM FILES (X86)\WINDOWS KITS\10\INCLUDE\10.0.14393.0\UM\RESTRICTEDERRORINFO.H
C:\PROGRAM FILES (X86)\WINDOWS KITS\10\INCLUDE\10.0.14393.0\WINRT\WRL\MODULE.H
C:\PROGRAM FILES (X86)\WINDOWS KITS\10\INCLUDE\10.0.14393.0\WINRT\WRL\FTM.H
C:\PROGRAM FILES (X86)\WINDOWS KITS\10\INCLUDE\10.0.14393.0\WINRT\WRL\WRAPPERS\COREWRAPPERS.H
C:\PROGRAM FILES (X86)\WINDOWS KITS\10\INCLUDE\10.0.14393.0\SHARED\INTSAFE.H
C:\PROGRAM FILES (X86)\WINDOWS KITS\10\INCLUDE\10.0.14393.0\WINRT\WRL\EVENT.H
C:\PROGRAM FILES (X86)\WINDOWS KITS\10\INCLUDE\10.0.14393.0\WINRT\EVENTTOKEN.H
E:\PROGRAMS\MICROSOFT VISUAL STUDIO 14.0\VC\INCLUDE\PPLTASKS.H
E:\PROGRAMS\MICROSOFT VISUAL STUDIO 14.0\VC\INCLUDE\PPLWIN.H
E:\PROGRAMS\MICROSOFT VISUAL STUDIO 14.0\VC\INCLUDE\PPLINTERFACE.H
E:\PROGRAMS\MICROSOFT VISUAL STUDIO 14.0\VC\INCLUDE\MEMORY
E:\PROGRAMS\MICROSOFT VISUAL STUDIO 14.0\VC\INCLUDE\XMEMORY
E:\PROGRAMS\MICROSOFT VISUAL STUDIO 14.0\VC\INCLUDE\XMEMORY0
E:\PROGRAMS\MICROSOFT VISUAL STUDIO 14.0\VC\INCLUDE\CSTDINT
E:\PROGRAMS\MICROSOFT VISUAL STUDIO 14.0\VC\INCLUDE\YVALS.H
E:\PROGRAMS\MICROSOFT VISUAL STUDIO 14.0\VC\INCLUDE\XKEYCHECK.H
E:\PROGRAMS\MICROSOFT VISUAL STUDIO 14.0\VC\INCLUDE\USE_ANSI.H
E:\PROGRAMS\MICROSOFT VISUAL STUDIO 14.0\VC\INCLUDE\STDINT.H
E:\PROGRAMS\MICROSOFT VISUAL STUDIO 14.0\VC\INCLUDE\CSTDLIB
E:\PROGRAMS\MICROSOFT VISUAL STUDIO 14.0\VC\INCLUDE\LIMITS
E:\PROGRAMS\MICROSOFT VISUAL STUDIO 14.0\VC\INCLUDE\YMATH.H
E:\PROGRAMS\MICROSOFT VISUAL STUDIO 14.0\VC\INCLUDE\CFLOAT
C:\PROGRAM FILES (X86)\WINDOWS KITS\10\INCLUDE\10.0.14393.0\UCRT\FLOAT.H
E:\PROGRAMS\MICROSOFT VISUAL STUDIO 14.0\VC\INCLUDE\CLIMITS
E:\PROGRAMS\MICROSOFT VISUAL STUDIO 14.0\VC\INCLUDE\CMATH
C:\PROGRAM FILES (X86)\WINDOWS KITS\10\INCLUDE\10.0.14393.0\UCRT\MATH.H
E:\PROGRAMS\MICROSOFT VISUAL STUDIO 14.0\VC\INCLUDE\XTGMATH.H
E:\PROGRAMS\MICROSOFT VISUAL STUDIO 14.0\VC\INCLUDE\XTR1COMMON
E:\PROGRAMS\MICROSOFT VISUAL STUDIO 14.0\VC\INCLUDE\CWCHAR
C:\PROGRAM FILES (X86)\WINDOWS KITS\10\INCLUDE\10.0.14393.0\UCRT\WCHAR.H
C:\PROGRAM FILES (X86)\WINDOWS KITS\10\INCLUDE\10.0.14393.0\UCRT\CORECRT_WCONIO.H
C:\PROGRAM FILES (X86)\WINDOWS KITS\10\INCLUDE\10.0.14393.0\UCRT\CORECRT_STDIO_CONFIG.H
C:\PROGRAM FILES (X86)\WINDOWS KITS\10\INCLUDE\10.0.14393.0\UCRT\CORECRT_WDIRECT.H
C:\PROGRAM FILES (X86)\WINDOWS KITS\10\INCLUDE\10.0.14393.0\UCRT\CORECRT_WIO.H
C:\PROGRAM FILES (X86)\WINDOWS KITS\10\INCLUDE\10.0.14393.0\UCRT\CORECRT_SHARE.H
C:\PROGRAM FILES (X86)\WINDOWS KITS\10\INCLUDE\10.0.14393.0\UCRT\CORECRT_WPROCESS.H
C:\PROGRAM FILES (X86)\WINDOWS KITS\10\INCLUDE\10.0.14393.0\UCRT\CORECRT_WSTDIO.H
C:\PROGRAM FILES (X86)\WINDOWS KITS\10\INCLUDE\10.0.14393.0\UCRT\CORECRT_WTIME.H
C:\PROGRAM FILES (X86)\WINDOWS KITS\10\INCLUDE\10.0.14393.0\UCRT\SYS\STAT.H
C:\PROGRAM FILES (X86)\WINDOWS KITS\10\INCLUDE\10.0.14393.0\UCRT\SYS\TYPES.H
E:\PROGRAMS\MICROSOFT VISUAL STUDIO 14.0\VC\INCLUDE\XSTDDEF
E:\PROGRAMS\MICROSOFT VISUAL STUDIO 14.0\VC\INCLUDE\CSTDDEF
E:\PROGRAMS\MICROSOFT VISUAL STUDIO 14.0\VC\INCLUDE\INITIALIZER_LIST
E:\PROGRAMS\MICROSOFT VISUAL STUDIO 14.0\VC\INCLUDE\NEW
E:\PROGRAMS\MICROSOFT VISUAL STUDIO 14.0\VC\INCLUDE\EXCEPTION
E:\PROGRAMS\MICROSOFT VISUAL STUDIO 14.0\VC\INCLUDE\TYPE_TRAITS
E:\PROGRAMS\MICROSOFT VISUAL STUDIO 14.0\VC\INCLUDE\VCRUNTIME_EXCEPTION.H
E:\PROGRAMS\MICROSOFT VISUAL STUDIO 14.0\VC\INCLUDE\EH.H
C:\PROGRAM FILES (X86)\WINDOWS KITS\10\INCLUDE\10.0.14393.0\UCRT\CORECRT_TERMINATE.H
E:\PROGRAMS\MICROSOFT VISUAL STUDIO 14.0\VC\INCLUDE\XUTILITY
E:\PROGRAMS\MICROSOFT VISUAL STUDIO 14.0\VC\INCLUDE\UTILITY
E:\PROGRAMS\MICROSOFT VISUAL STUDIO 14.0\VC\INCLUDE\IOSFWD
E:\PROGRAMS\MICROSOFT VISUAL STUDIO 14.0\VC\INCLUDE\CSTDIO
C:\PROGRAM FILES (X86)\WINDOWS KITS\10\INCLUDE\10.0.14393.0\UCRT\STDIO.H
E:\PROGRAMS\MICROSOFT VISUAL STUDIO 14.0\VC\INCLUDE\CSTRING
E:\PROGRAMS\MICROSOFT VISUAL STUDIO 14.0\VC\INCLUDE\XATOMIC0.H
E:\PROGRAMS\MICROSOFT VISUAL STUDIO 14.0\VC\INCLUDE\TYPEINFO
E:\PROGRAMS\MICROSOFT VISUAL STUDIO 14.0\VC\INCLUDE\VCRUNTIME_TYPEINFO.H
E:\PROGRAMS\MICROSOFT VISUAL STUDIO 14.0\VC\INCLUDE\ATOMIC
E:\PROGRAMS\MICROSOFT VISUAL STUDIO 14.0\VC\INCLUDE\XATOMIC.H
E:\PROGRAMS\MICROSOFT VISUAL STUDIO 14.0\VC\INCLUDE\XXATOMIC
E:\PROGRAMS\MICROSOFT VISUAL STUDIO 14.0\VC\INCLUDE\CONDITION_VARIABLE
E:\PROGRAMS\MICROSOFT VISUAL STUDIO 14.0\VC\INCLUDE\THR\XTHREAD
E:\PROGRAMS\MICROSOFT VISUAL STUDIO 14.0\VC\INCLUDE\THR\XTHRCOMMON.H
E:\PROGRAMS\MICROSOFT VISUAL STUDIO 14.0\VC\INCLUDE\THR\XTIME
E:\PROGRAMS\MICROSOFT VISUAL STUDIO 14.0\VC\INCLUDE\THR\XTIMEC.H
C:\PROGRAM FILES (X86)\WINDOWS KITS\10\INCLUDE\10.0.14393.0\UCRT\TIME.H
E:\PROGRAMS\MICROSOFT VISUAL STUDIO 14.0\VC\INCLUDE\THR\XTHREADS.H
E:\PROGRAMS\MICROSOFT VISUAL STUDIO 14.0\VC\INCLUDE\TUPLE
E:\PROGRAMS\MICROSOFT VISUAL STUDIO 14.0\VC\INCLUDE\MUTEX
E:\PROGRAMS\MICROSOFT VISUAL STUDIO 14.0\VC\INCLUDE\CHRONO
E:\PROGRAMS\MICROSOFT VISUAL STUDIO 14.0\VC\INCLUDE\RATIO
E:\PROGRAMS\MICROSOFT VISUAL STUDIO 14.0\VC\INCLUDE\FUNCTIONAL
E:\PROGRAMS\MICROSOFT VISUAL STUDIO 14.0\VC\INCLUDE\XFUNCTIONAL
E:\PROGRAMS\MICROSOFT VISUAL STUDIO 14.0\VC\INCLUDE\XSTRING
E:\PROGRAMS\MICROSOFT VISUAL STUDIO 14.0\VC\INCLUDE\SYSTEM_ERROR
E:\PROGRAMS\MICROSOFT VISUAL STUDIO 14.0\VC\INCLUDE\CERRNO
E:\PROGRAMS\MICROSOFT VISUAL STUDIO 14.0\VC\INCLUDE\STDEXCEPT
E:\PROGRAMS\MICROSOFT VISUAL STUDIO 14.0\VC\INCLUDE\THREAD
E:\PROGRAMS\MICROSOFT VISUAL STUDIO 14.0\VC\INCLUDE\PPLTASKSCHEDULER.H
E:\PROGRAMS\MICROSOFT VISUAL STUDIO 14.0\VC\INCLUDE\PPLCANCELLATION_TOKEN.H
E:\PROGRAMS\MICROSOFT VISUAL STUDIO 14.0\VC\INCLUDE\VECTOR
E:\PROGRAMS\MICROSOFT VISUAL STUDIO 14.0\VC\INCLUDE\ALGORITHM
E:\PROGRAMS\MICROSOFT VISUAL STUDIO 14.0\VC\INCLUDE\AGILE.H
C:\PROGRAM FILES (X86)\WINDOWS KITS\10\INCLUDE\10.0.14393.0\SHARED\DXGI1_4.H
C:\PROGRAM FILES (X86)\WINDOWS KITS\10\INCLUDE\10.0.14393.0\SHARED\DXGI1_3.H
C:\PROGRAM FILES (X86)\WINDOWS KITS\10\INCLUDE\10.0.14393.0\SHARED\DXGI1_2.H
C:\PROGRAM FILES (X86)\WINDOWS KITS\10\INCLUDE\10.0.14393.0\SHARED\DXGI.H
C:\PROGRAM FILES (X86)\WINDOWS KITS\10\INCLUDE\10.0.14393.0\UM\OCIDL.H
C:\PROGRAM FILES (X86)\WINDOWS KITS\10\INCLUDE\10.0.14393.0\SHARED\DXGITYPE.H
C:\PROGRAM FILES (X86)\WINDOWS KITS\10\INCLUDE\10.0.14393.0\SHARED\DXGIFORMAT.H
C:\PROGRAM FILES (X86)\WINDOWS KITS\10\INCLUDE\10.0.14393.0\UM\D3D11_3.H
C:\PROGRAM FILES (X86)\WINDOWS KITS\10\INCLUDE\10.0.14393.0\UM\D3DCOMMON.H
C:\PROGRAM FILES (X86)\WINDOWS KITS\10\INCLUDE\10.0.14393.0\UM\D3D11_2.H
C:\PROGRAM FILES (X86)\WINDOWS KITS\10\INCLUDE\10.0.14393.0\UM\D3D11_1.H
C:\PROGRAM FILES (X86)\WINDOWS KITS\10\INCLUDE\10.0.14393.0\UM\D3D11.H
C:\PROGRAM FILES (X86)\WINDOWS KITS\10\INCLUDE\10.0.14393.0\UM\D3D11SDKLAYERS.H
C:\PROGRAM FILES (X86)\WINDOWS KITS\10\INCLUDE\10.0.14393.0\UM\D3D10_1.H
C:\PROGRAM FILES (X86)\WINDOWS KITS\10\INCLUDE\10.0.14393.0\UM\D3D10.H
C:\PROGRAM FILES (X86)\WINDOWS KITS\10\INCLUDE\10.0.14393.0\UM\D2D1_3.H
C:\PROGRAM FILES (X86)\WINDOWS KITS\10\INCLUDE\10.0.14393.0\UM\D2D1_2.H
C:\PROGRAM FILES (X86)\WINDOWS KITS\10\INCLUDE\10.0.14393.0\UM\D2D1_1.H
C:\PROGRAM FILES (X86)\WINDOWS KITS\10\INCLUDE\10.0.14393.0\UM\D2D1.H
C:\PROGRAM FILES (X86)\WINDOWS KITS\10\INCLUDE\10.0.14393.0\UM\DCOMMON.H
C:\PROGRAM FILES (X86)\WINDOWS KITS\10\INCLUDE\10.0.14393.0\UM\D2DERR.H
C:\PROGRAM FILES (X86)\WINDOWS KITS\10\INCLUDE\10.0.14393.0\UM\D2DBASETYPES.H
C:\PROGRAM FILES (X86)\WINDOWS KITS\10\INCLUDE\10.0.14393.0\UM\D2D1HELPER.H
C:\PROGRAM FILES (X86)\WINDOWS KITS\10\INCLUDE\10.0.14393.0\UM\D2D1EFFECTS.H
C:\PROGRAM FILES (X86)\WINDOWS KITS\10\INCLUDE\10.0.14393.0\UM\D2D1_1HELPER.H
C:\PROGRAM FILES (X86)\WINDOWS KITS\10\INCLUDE\10.0.14393.0\UM\D2D1EFFECTS_1.H
C:\PROGRAM FILES (X86)\WINDOWS KITS\10\INCLUDE\10.0.14393.0\UM\D2D1_2HELPER.H
C:\PROGRAM FILES (X86)\WINDOWS KITS\10\INCLUDE\10.0.14393.0\UM\D2D1EFFECTS_2.H
C:\PROGRAM FILES (X86)\WINDOWS KITS\10\INCLUDE\10.0.14393.0\UM\D2D1_3HELPER.H
C:\PROGRAM FILES (X86)\WINDOWS KITS\10\INCLUDE\10.0.14393.0\UM\DWRITE_3.H
C:\PROGRAM FILES (X86)\WINDOWS KITS\10\INCLUDE\10.0.14393.0\UM\DWRITE_2.H
C:\PROGRAM FILES (X86)\WINDOWS KITS\10\INCLUDE\10.0.14393.0\UM\DWRITE_1.H
C:\PROGRAM FILES (X86)\WINDOWS KITS\10\INCLUDE\10.0.14393.0\UM\DWRITE.H
C:\PROGRAM FILES (X86)\WINDOWS KITS\10\INCLUDE\10.0.14393.0\UM\WINCODEC.H
C:\PROGRAM FILES (X86)\WINDOWS KITS\10\INCLUDE\10.0.14393.0\UM\DIRECTXCOLORS.H
C:\PROGRAM FILES (X86)\WINDOWS KITS\10\INCLUDE\10.0.14393.0\UM\DIRECTXMATH.H
C:\PROGRAM FILES (X86)\WINDOWS KITS\10\INCLUDE\10.0.14393.0\UCRT\ASSERT.H
C:\PROGRAM FILES (X86)\WINDOWS KITS\10\INCLUDE\10.0.14393.0\UM\DIRECTXMATHCONVERT.INL
C:\PROGRAM FILES (X86)\WINDOWS KITS\10\INCLUDE\10.0.14393.0\UM\DIRECTXMATHVECTOR.INL
C:\PROGRAM FILES (X86)\WINDOWS KITS\10\INCLUDE\10.0.14393.0\UM\DIRECTXMATHMATRIX.INL
C:\PROGRAM FILES (X86)\WINDOWS KITS\10\INCLUDE\10.0.14393.0\UM\DIRECTXMATHMISC.INL
C:\PROGRAM FILES (X86)\WINDOWS KITS\10\INCLUDE\10.0.14393.0\UM\WINDOWS.UI.XAML.MEDIA.DXINTEROP.H
E:\PROGRAMS\MICROSOFT VISUAL STUDIO 14.0\VC\INCLUDE\CONCRT.H
E:\PROGRAMS\MICROSOFT VISUAL STUDIO 14.0\VC\INCLUDE\COLLECTION.H
E:\PROGRAMS\MICROSOFT VISUAL STUDIO 14.0\VC\INCLUDE\ARRAY
E:\PROGRAMS\MICROSOFT VISUAL STUDIO 14.0\VC\INCLUDE\ITERATOR
E:\PROGRAMS\MICROSOFT VISUAL STUDIO 14.0\VC\INCLUDE\ISTREAM
E:\PROGRAMS\MICROSOFT VISUAL STUDIO 14.0\VC\INCLUDE\OSTREAM
E:\PROGRAMS\MICROSOFT VISUAL STUDIO 14.0\VC\INCLUDE\IOS
E:\PROGRAMS\MICROSOFT VISUAL STUDIO 14.0\VC\INCLUDE\XLOCNUM
E:\PROGRAMS\MICROSOFT VISUAL STUDIO 14.0\VC\INCLUDE\STREAMBUF
E:\PROGRAMS\MICROSOFT VISUAL STUDIO 14.0\VC\INCLUDE\XIOSBASE
E:\PROGRAMS\MICROSOFT VISUAL STUDIO 14.0\VC\INCLUDE\XLOCALE
E:\PROGRAMS\MICROSOFT VISUAL STUDIO 14.0\VC\INCLUDE\XLOCINFO
E:\PROGRAMS\MICROSOFT VISUAL STUDIO 14.0\VC\INCLUDE\XLOCINFO.H
C:\PROGRAM FILES (X86)\WINDOWS KITS\10\INCLUDE\10.0.14393.0\UCRT\LOCALE.H
E:\PROGRAMS\MICROSOFT VISUAL STUDIO 14.0\VC\INCLUDE\XFACET
C:\PROGRAM FILES (X86)\WINDOWS KITS\10\INCLUDE\10.0.14393.0\UCRT\SHARE.H
E:\PROGRAMS\MICROSOFT VISUAL STUDIO 14.0\VC\INCLUDE\MAP
E:\PROGRAMS\MICROSOFT VISUAL STUDIO 14.0\VC\INCLUDE\XTREE
E:\PROGRAMS\MICROSOFT VISUAL STUDIO 14.0\VC\INCLUDE\UNORDERED_MAP
E:\PROGRAMS\MICROSOFT VISUAL STUDIO 14.0\VC\INCLUDE\XHASH
E:\PROGRAMS\MICROSOFT VISUAL STUDIO 14.0\VC\INCLUDE\LIST
E:\PROGRAMS\MICROSOFT VISUAL STUDIO 14.0\VC\INCLUDE\QUEUE
E:\PROGRAMS\MICROSOFT VISUAL STUDIO 14.0\VC\INCLUDE\DEQUE
^C:\USERS\ZOLTáN\DESKTOP\ENVIROMENTCREATOR_VASS_ZOLTáN_P0E4P2\BASEENGINE\CONTEXT.CPP
C:\USERS\ZOLTáN\DESKTOP\ENVIROMENTCREATOR_VASS_ZOLTáN_P0E4P2\BASEENGINE\DEBUG\BASEENGINE.PCH
C:\WINDOWS\MICROSOFT.NET\FRAMEWORK\V2.0.50727\MSCORWKS.DLL
C:\WINDOWS\MICROSOFT.NET\FRAMEWORK\V4.0.30319\CLR.DLL
E:\PROGRAMS\MICROSOFT VISUAL STUDIO 14.0\VC\BIN\CL.EXE.CONFIG
E:\PROGRAMS\MICROSOFT VISUAL STUDIO 14.0\VC\LIB\STORE\REFERENCES\PLATFORM.WINMD
C:\PROGRAM FILES (X86)\WINDOWS KITS\10\REFERENCES\WINDOWS.FOUNDATION.FOUNDATIONCONTRACT\2.0.0.0\WINDOWS.FOUNDATION.FOUNDATIONCONTRACT.WINMD
C:\PROGRAM FILES (X86)\WINDOWS KITS\10\REFERENCES\WINDOWS.FOUNDATION.UNIVERSALAPICONTRACT\3.0.0.0\WINDOWS.FOUNDATION.UNIVERSALAPICONTRACT.WINMD
C:\PROGRAM FILES (X86)\WINDOWS KITS\10\REFERENCES\WINDOWS.APPLICATIONMODEL.CALLS.CALLSVOIPCONTRACT\1.0.0.0\WINDOWS.APPLICATIONMODEL.CALLS.CALLSVOIPCONTRACT.WINMD
C:\PROGRAM FILES (X86)\WINDOWS KITS\10\REFERENCES\WINDOWS.APPLICATIONMODEL.SOCIALINFO.SOCIALINFOCONTRACT\1.0.0.0\WINDOWS.APPLICATIONMODEL.SOCIALINFO.SOCIALINFOCONTRACT.WINMD
C:\PROGRAM FILES (X86)\WINDOWS KITS\10\REFERENCES\WINDOWS.DEVICES.DEVICESLOWLEVELCONTRACT\2.0.0.0\WINDOWS.DEVICES.DEVICESLOWLEVELCONTRACT.WINMD
C:\PROGRAM FILES (X86)\WINDOWS KITS\10\REFERENCES\WINDOWS.DEVICES.PRINTERS.PRINTERSCONTRACT\1.0.0.0\WINDOWS.DEVICES.PRINTERS.PRINTERSCONTRACT.WINMD
C:\PROGRAM FILES (X86)\WINDOWS KITS\10\REFERENCES\WINDOWS.GRAPHICS.PRINTING3D.PRINTING3DCONTRACT\3.0.0.0\WINDOWS.GRAPHICS.PRINTING3D.PRINTING3DCONTRACT.WINMD
C:\PROGRAM FILES (X86)\WINDOWS KITS\10\REFERENCES\WINDOWS.NETWORKING.CONNECTIVITY.WWANCONTRACT\1.0.0.0\WINDOWS.NETWORKING.CONNECTIVITY.WWANCONTRACT.WINMD
C:\PROGRAM FILES (X86)\WINDOWS KITS\10\REFERENCES\WINDOWS.SERVICES.STORE.STORECONTRACT\1.0.0.0\WINDOWS.SERVICES.STORE.STORECONTRACT.WINMD
C:\PROGRAM FILES (X86)\WINDOWS KITS\10\REFERENCES\WINDOWS.SYSTEM.PROFILE.PROFILEHARDWARETOKENCONTRACT\1.0.0.0\WINDOWS.SYSTEM.PROFILE.PROFILEHARDWARETOKENCONTRACT.WINMD
C:\PROGRAM FILES (X86)\WINDOWS KITS\10\REFERENCES\WINDOWS.SYSTEM.PROFILE.PROFILESHAREDMODECONTRACT\1.0.0.0\WINDOWS.SYSTEM.PROFILE.PROFILESHAREDMODECONTRACT.WINMD
C:\PROGRAM FILES (X86)\WINDOWS KITS\10\REFERENCES\WINDOWS.UI.VIEWMANAGEMENT.VIEWMANAGEMENTVIEWSCALINGCONTRACT\1.0.0.0\WINDOWS.UI.VIEWMANAGEMENT.VIEWMANAGEMENTVIEWSCALINGCONTRACT.WINMD
C:\USERS\ZOLTáN\DESKTOP\ENVIROMENTCREATOR_VASS_ZOLTáN_P0E4P2\BASEENGINE\DEBUG\PCH.OBJ
C:\USERS\ZOLTáN\DESKTOP\ENVIROMENTCREATOR_VASS_ZOLTáN_P0E4P2\BASEENGINE\CONTEXT.H
C:\USERS\ZOLTáN\DESKTOP\ENVIROMENTCREATOR_VASS_ZOLTáN_P0E4P2\BASEENGINE\COMMON.H
^C:\USERS\ZOLTáN\DESKTOP\ENVIROMENTCREATOR_VASS_ZOLTáN_P0E4P2\BASEENGINE\MESSAGE.CPP
C:\USERS\ZOLTáN\DESKTOP\ENVIROMENTCREATOR_VASS_ZOLTáN_P0E4P2\BASEENGINE\DEBUG\BASEENGINE.PCH
E:\PROGRAMS\MICROSOFT VISUAL STUDIO 14.0\VC\BIN\CL.EXE.CONFIG
E:\PROGRAMS\MICROSOFT VISUAL STUDIO 14.0\VC\LIB\STORE\REFERENCES\PLATFORM.WINMD
C:\PROGRAM FILES (X86)\WINDOWS KITS\10\REFERENCES\WINDOWS.FOUNDATION.FOUNDATIONCONTRACT\2.0.0.0\WINDOWS.FOUNDATION.FOUNDATIONCONTRACT.WINMD
C:\PROGRAM FILES (X86)\WINDOWS KITS\10\REFERENCES\WINDOWS.FOUNDATION.UNIVERSALAPICONTRACT\3.0.0.0\WINDOWS.FOUNDATION.UNIVERSALAPICONTRACT.WINMD
C:\PROGRAM FILES (X86)\WINDOWS KITS\10\REFERENCES\WINDOWS.APPLICATIONMODEL.CALLS.CALLSVOIPCONTRACT\1.0.0.0\WINDOWS.APPLICATIONMODEL.CALLS.CALLSVOIPCONTRACT.WINMD
C:\PROGRAM FILES (X86)\WINDOWS KITS\10\REFERENCES\WINDOWS.APPLICATIONMODEL.SOCIALINFO.SOCIALINFOCONTRACT\1.0.0.0\WINDOWS.APPLICATIONMODEL.SOCIALINFO.SOCIALINFOCONTRACT.WINMD
C:\PROGRAM FILES (X86)\WINDOWS KITS\10\REFERENCES\WINDOWS.DEVICES.DEVICESLOWLEVELCONTRACT\2.0.0.0\WINDOWS.DEVICES.DEVICESLOWLEVELCONTRACT.WINMD
C:\PROGRAM FILES (X86)\WINDOWS KITS\10\REFERENCES\WINDOWS.DEVICES.PRINTERS.PRINTERSCONTRACT\1.0.0.0\WINDOWS.DEVICES.PRINTERS.PRINTERSCONTRACT.WINMD
C:\PROGRAM FILES (X86)\WINDOWS KITS\10\REFERENCES\WINDOWS.GRAPHICS.PRINTING3D.PRINTING3DCONTRACT\3.0.0.0\WINDOWS.GRAPHICS.PRINTING3D.PRINTING3DCONTRACT.WINMD
C:\PROGRAM FILES (X86)\WINDOWS KITS\10\REFERENCES\WINDOWS.NETWORKING.CONNECTIVITY.WWANCONTRACT\1.0.0.0\WINDOWS.NETWORKING.CONNECTIVITY.WWANCONTRACT.WINMD
C:\PROGRAM FILES (X86)\WINDOWS KITS\10\REFERENCES\WINDOWS.SERVICES.STORE.STORECONTRACT\1.0.0.0\WINDOWS.SERVICES.STORE.STORECONTRACT.WINMD
C:\PROGRAM FILES (X86)\WINDOWS KITS\10\REFERENCES\WINDOWS.SYSTEM.PROFILE.PROFILEHARDWARETOKENCONTRACT\1.0.0.0\WINDOWS.SYSTEM.PROFILE.PROFILEHARDWARETOKENCONTRACT.WINMD
C:\PROGRAM FILES (X86)\WINDOWS KITS\10\REFERENCES\WINDOWS.SYSTEM.PROFILE.PROFILESHAREDMODECONTRACT\1.0.0.0\WINDOWS.SYSTEM.PROFILE.PROFILESHAREDMODECONTRACT.WINMD
C:\PROGRAM FILES (X86)\WINDOWS KITS\10\REFERENCES\WINDOWS.UI.VIEWMANAGEMENT.VIEWMANAGEMENTVIEWSCALINGCONTRACT\1.0.0.0\WINDOWS.UI.VIEWMANAGEMENT.VIEWMANAGEMENTVIEWSCALINGCONTRACT.WINMD
C:\USERS\ZOLTáN\DESKTOP\ENVIROMENTCREATOR_VASS_ZOLTáN_P0E4P2\BASEENGINE\DEBUG\PCH.OBJ
C:\USERS\ZOLTáN\DESKTOP\ENVIROMENTCREATOR_VASS_ZOLTáN_P0E4P2\BASEENGINE\MESSAGE.H
C:\USERS\ZOLTáN\DESKTOP\ENVIROMENTCREATOR_VASS_ZOLTáN_P0E4P2\BASEENGINE\COMMON.H
C:\USERS\ZOLTáN\DESKTOP\ENVIROMENTCREATOR_VASS_ZOLTáN_P0E4P2\BASEENGINE\DEVICEHANDLER.H
E:\PROGRAMS\MICROSOFT VISUAL STUDIO 14.0\VC\INCLUDE\SHARED_MUTEX
^C:\USERS\ZOLTáN\DESKTOP\ENVIROMENTCREATOR_VASS_ZOLTáN_P0E4P2\BASEENGINE\PLUGINBMP.CPP
C:\USERS\ZOLTáN\DESKTOP\ENVIROMENTCREATOR_VASS_ZOLTáN_P0E4P2\BASEENGINE\DEBUG\BASEENGINE.PCH
E:\PROGRAMS\MICROSOFT VISUAL STUDIO 14.0\VC\BIN\CL.EXE.CONFIG
E:\PROGRAMS\MICROSOFT VISUAL STUDIO 14.0\VC\LIB\STORE\REFERENCES\PLATFORM.WINMD
C:\PROGRAM FILES (X86)\WINDOWS KITS\10\REFERENCES\WINDOWS.FOUNDATION.FOUNDATIONCONTRACT\2.0.0.0\WINDOWS.FOUNDATION.FOUNDATIONCONTRACT.WINMD
C:\PROGRAM FILES (X86)\WINDOWS KITS\10\REFERENCES\WINDOWS.FOUNDATION.UNIVERSALAPICONTRACT\3.0.0.0\WINDOWS.FOUNDATION.UNIVERSALAPICONTRACT.WINMD
C:\PROGRAM FILES (X86)\WINDOWS KITS\10\REFERENCES\WINDOWS.APPLICATIONMODEL.CALLS.CALLSVOIPCONTRACT\1.0.0.0\WINDOWS.APPLICATIONMODEL.CALLS.CALLSVOIPCONTRACT.WINMD
C:\PROGRAM FILES (X86)\WINDOWS KITS\10\REFERENCES\WINDOWS.APPLICATIONMODEL.SOCIALINFO.SOCIALINFOCONTRACT\1.0.0.0\WINDOWS.APPLICATIONMODEL.SOCIALINFO.SOCIALINFOCONTRACT.WINMD
C:\PROGRAM FILES (X86)\WINDOWS KITS\10\REFERENCES\WINDOWS.DEVICES.DEVICESLOWLEVELCONTRACT\2.0.0.0\WINDOWS.DEVICES.DEVICESLOWLEVELCONTRACT.WINMD
C:\PROGRAM FILES (X86)\WINDOWS KITS\10\REFERENCES\WINDOWS.DEVICES.PRINTERS.PRINTERSCONTRACT\1.0.0.0\WINDOWS.DEVICES.PRINTERS.PRINTERSCONTRACT.WINMD
C:\PROGRAM FILES (X86)\WINDOWS KITS\10\REFERENCES\WINDOWS.GRAPHICS.PRINTING3D.PRINTING3DCONTRACT\3.0.0.0\WINDOWS.GRAPHICS.PRINTING3D.PRINTING3DCONTRACT.WINMD
C:\PROGRAM FILES (X86)\WINDOWS KITS\10\REFERENCES\WINDOWS.NETWORKING.CONNECTIVITY.WWANCONTRACT\1.0.0.0\WINDOWS.NETWORKING.CONNECTIVITY.WWANCONTRACT.WINMD
C:\PROGRAM FILES (X86)\WINDOWS KITS\10\REFERENCES\WINDOWS.SERVICES.STORE.STORECONTRACT\1.0.0.0\WINDOWS.SERVICES.STORE.STORECONTRACT.WINMD
C:\PROGRAM FILES (X86)\WINDOWS KITS\10\REFERENCES\WINDOWS.SYSTEM.PROFILE.PROFILEHARDWARETOKENCONTRACT\1.0.0.0\WINDOWS.SYSTEM.PROFILE.PROFILEHARDWARETOKENCONTRACT.WINMD
C:\PROGRAM FILES (X86)\WINDOWS KITS\10\REFERENCES\WINDOWS.SYSTEM.PROFILE.PROFILESHAREDMODECONTRACT\1.0.0.0\WINDOWS.SYSTEM.PROFILE.PROFILESHAREDMODECONTRACT.WINMD
C:\PROGRAM FILES (X86)\WINDOWS KITS\10\REFERENCES\WINDOWS.UI.VIEWMANAGEMENT.VIEWMANAGEMENTVIEWSCALINGCONTRACT\1.0.0.0\WINDOWS.UI.VIEWMANAGEMENT.VIEWMANAGEMENTVIEWSCALINGCONTRACT.WINMD
C:\USERS\ZOLTáN\DESKTOP\ENVIROMENTCREATOR_VASS_ZOLTáN_P0E4P2\BASEENGINE\DEBUG\PCH.OBJ
C:\USERS\ZOLTáN\DESKTOP\ENVIROMENTCREATOR_VASS_ZOLTáN_P0E4P2\BASEENGINE\PLUGINBMP.H
C:\USERS\ZOLTáN\DESKTOP\ENVIROMENTCREATOR_VASS_ZOLTáN_P0E4P2\BASEENGINE\PLUGIN.H
C:\USERS\ZOLTáN\DESKTOP\ENVIROMENTCREATOR_VASS_ZOLTáN_P0E4P2\BASEENGINE\COMMON.H
^C:\USERS\ZOLTáN\DESKTOP\ENVIROMENTCREATOR_VASS_ZOLTáN_P0E4P2\BASEENGINE\DLLMAIN.CPP
C:\USERS\ZOLTáN\DESKTOP\ENVIROMENTCREATOR_VASS_ZOLTáN_P0E4P2\BASEENGINE\DEBUG\BASEENGINE.PCH
C:\WINDOWS\MICROSOFT.NET\FRAMEWORK\V2.0.50727\MSCORWKS.DLL
C:\WINDOWS\MICROSOFT.NET\FRAMEWORK\V4.0.30319\CLR.DLL
E:\PROGRAMS\MICROSOFT VISUAL STUDIO 14.0\VC\BIN\CL.EXE.CONFIG
E:\PROGRAMS\MICROSOFT VISUAL STUDIO 14.0\VC\LIB\STORE\REFERENCES\PLATFORM.WINMD
C:\PROGRAM FILES (X86)\WINDOWS KITS\10\REFERENCES\WINDOWS.FOUNDATION.FOUNDATIONCONTRACT\2.0.0.0\WINDOWS.FOUNDATION.FOUNDATIONCONTRACT.WINMD
C:\PROGRAM FILES (X86)\WINDOWS KITS\10\REFERENCES\WINDOWS.FOUNDATION.UNIVERSALAPICONTRACT\3.0.0.0\WINDOWS.FOUNDATION.UNIVERSALAPICONTRACT.WINMD
C:\PROGRAM FILES (X86)\WINDOWS KITS\10\REFERENCES\WINDOWS.APPLICATIONMODEL.CALLS.CALLSVOIPCONTRACT\1.0.0.0\WINDOWS.APPLICATIONMODEL.CALLS.CALLSVOIPCONTRACT.WINMD
C:\PROGRAM FILES (X86)\WINDOWS KITS\10\REFERENCES\WINDOWS.APPLICATIONMODEL.SOCIALINFO.SOCIALINFOCONTRACT\1.0.0.0\WINDOWS.APPLICATIONMODEL.SOCIALINFO.SOCIALINFOCONTRACT.WINMD
C:\PROGRAM FILES (X86)\WINDOWS KITS\10\REFERENCES\WINDOWS.DEVICES.DEVICESLOWLEVELCONTRACT\2.0.0.0\WINDOWS.DEVICES.DEVICESLOWLEVELCONTRACT.WINMD
C:\PROGRAM FILES (X86)\WINDOWS KITS\10\REFERENCES\WINDOWS.DEVICES.PRINTERS.PRINTERSCONTRACT\1.0.0.0\WINDOWS.DEVICES.PRINTERS.PRINTERSCONTRACT.WINMD
C:\PROGRAM FILES (X86)\WINDOWS KITS\10\REFERENCES\WINDOWS.GRAPHICS.PRINTING3D.PRINTING3DCONTRACT\3.0.0.0\WINDOWS.GRAPHICS.PRINTING3D.PRINTING3DCONTRACT.WINMD
C:\PROGRAM FILES (X86)\WINDOWS KITS\10\REFERENCES\WINDOWS.NETWORKING.CONNECTIVITY.WWANCONTRACT\1.0.0.0\WINDOWS.NETWORKING.CONNECTIVITY.WWANCONTRACT.WINMD
C:\PROGRAM FILES (X86)\WINDOWS KITS\10\REFERENCES\WINDOWS.SERVICES.STORE.STORECONTRACT\1.0.0.0\WINDOWS.SERVICES.STORE.STORECONTRACT.WINMD
C:\PROGRAM FILES (X86)\WINDOWS KITS\10\REFERENCES\WINDOWS.SYSTEM.PROFILE.PROFILEHARDWARETOKENCONTRACT\1.0.0.0\WINDOWS.SYSTEM.PROFILE.PROFILEHARDWARETOKENCONTRACT.WINMD
C:\PROGRAM FILES (X86)\WINDOWS KITS\10\REFERENCES\WINDOWS.SYSTEM.PROFILE.PROFILESHAREDMODECONTRACT\1.0.0.0\WINDOWS.SYSTEM.PROFILE.PROFILESHAREDMODECONTRACT.WINMD
C:\PROGRAM FILES (X86)\WINDOWS KITS\10\REFERENCES\WINDOWS.UI.VIEWMANAGEMENT.VIEWMANAGEMENTVIEWSCALINGCONTRACT\1.0.0.0\WINDOWS.UI.VIEWMANAGEMENT.VIEWMANAGEMENTVIEWSCALINGCONTRACT.WINMD
C:\USERS\ZOLTáN\DESKTOP\ENVIROMENTCREATOR_VASS_ZOLTáN_P0E4P2\BASEENGINE\DEBUG\PCH.OBJ
^C:\USERS\ZOLTáN\DESKTOP\ENVIROMENTCREATOR_VASS_ZOLTáN_P0E4P2\BASEENGINE\BASEENGINE.CPP
C:\USERS\ZOLTáN\DESKTOP\ENVIROMENTCREATOR_VASS_ZOLTáN_P0E4P2\BASEENGINE\DEBUG\BASEENGINE.PCH
E:\PROGRAMS\MICROSOFT VISUAL STUDIO 14.0\VC\BIN\CL.EXE.CONFIG
E:\PROGRAMS\MICROSOFT VISUAL STUDIO 14.0\VC\LIB\STORE\REFERENCES\PLATFORM.WINMD
C:\PROGRAM FILES (X86)\WINDOWS KITS\10\REFERENCES\WINDOWS.FOUNDATION.FOUNDATIONCONTRACT\2.0.0.0\WINDOWS.FOUNDATION.FOUNDATIONCONTRACT.WINMD
C:\PROGRAM FILES (X86)\WINDOWS KITS\10\REFERENCES\WINDOWS.FOUNDATION.UNIVERSALAPICONTRACT\3.0.0.0\WINDOWS.FOUNDATION.UNIVERSALAPICONTRACT.WINMD
C:\PROGRAM FILES (X86)\WINDOWS KITS\10\REFERENCES\WINDOWS.APPLICATIONMODEL.CALLS.CALLSVOIPCONTRACT\1.0.0.0\WINDOWS.APPLICATIONMODEL.CALLS.CALLSVOIPCONTRACT.WINMD
C:\PROGRAM FILES (X86)\WINDOWS KITS\10\REFERENCES\WINDOWS.APPLICATIONMODEL.SOCIALINFO.SOCIALINFOCONTRACT\1.0.0.0\WINDOWS.APPLICATIONMODEL.SOCIALINFO.SOCIALINFOCONTRACT.WINMD
C:\PROGRAM FILES (X86)\WINDOWS KITS\10\REFERENCES\WINDOWS.DEVICES.DEVICESLOWLEVELCONTRACT\2.0.0.0\WINDOWS.DEVICES.DEVICESLOWLEVELCONTRACT.WINMD
C:\PROGRAM FILES (X86)\WINDOWS KITS\10\REFERENCES\WINDOWS.DEVICES.PRINTERS.PRINTERSCONTRACT\1.0.0.0\WINDOWS.DEVICES.PRINTERS.PRINTERSCONTRACT.WINMD
C:\PROGRAM FILES (X86)\WINDOWS KITS\10\REFERENCES\WINDOWS.GRAPHICS.PRINTING3D.PRINTING3DCONTRACT\3.0.0.0\WINDOWS.GRAPHICS.PRINTING3D.PRINTING3DCONTRACT.WINMD
C:\PROGRAM FILES (X86)\WINDOWS KITS\10\REFERENCES\WINDOWS.NETWORKING.CONNECTIVITY.WWANCONTRACT\1.0.0.0\WINDOWS.NETWORKING.CONNECTIVITY.WWANCONTRACT.WINMD
C:\PROGRAM FILES (X86)\WINDOWS KITS\10\REFERENCES\WINDOWS.SERVICES.STORE.STORECONTRACT\1.0.0.0\WINDOWS.SERVICES.STORE.STORECONTRACT.WINMD
C:\PROGRAM FILES (X86)\WINDOWS KITS\10\REFERENCES\WINDOWS.SYSTEM.PROFILE.PROFILEHARDWARETOKENCONTRACT\1.0.0.0\WINDOWS.SYSTEM.PROFILE.PROFILEHARDWARETOKENCONTRACT.WINMD
C:\PROGRAM FILES (X86)\WINDOWS KITS\10\REFERENCES\WINDOWS.SYSTEM.PROFILE.PROFILESHAREDMODECONTRACT\1.0.0.0\WINDOWS.SYSTEM.PROFILE.PROFILESHAREDMODECONTRACT.WINMD
C:\PROGRAM FILES (X86)\WINDOWS KITS\10\REFERENCES\WINDOWS.UI.VIEWMANAGEMENT.VIEWMANAGEMENTVIEWSCALINGCONTRACT\1.0.0.0\WINDOWS.UI.VIEWMANAGEMENT.VIEWMANAGEMENTVIEWSCALINGCONTRACT.WINMD
C:\USERS\ZOLTáN\DESKTOP\ENVIROMENTCREATOR_VASS_ZOLTáN_P0E4P2\BASEENGINE\DEBUG\PCH.OBJ
C:\USERS\ZOLTáN\DESKTOP\ENVIROMENTCREATOR_VASS_ZOLTáN_P0E4P2\BASEENGINE\BASEENGINE.H
C:\USERS\ZOLTáN\DESKTOP\ENVIROMENTCREATOR_VASS_ZOLTáN_P0E4P2\BASEENGINE\CONTENT.H
C:\USERS\ZOLTáN\DESKTOP\ENVIROMENTCREATOR_VASS_ZOLTáN_P0E4P2\BASEENGINE\COMMON.H
C:\USERS\ZOLTáN\DESKTOP\ENVIROMENTCREATOR_VASS_ZOLTáN_P0E4P2\BASEENGINE\DEVICEHANDLER.H
E:\PROGRAMS\MICROSOFT VISUAL STUDIO 14.0\VC\INCLUDE\SHARED_MUTEX
C:\USERS\ZOLTáN\DESKTOP\ENVIROMENTCREATOR_VASS_ZOLTáN_P0E4P2\BASEENGINE\PLUGINBMP.H
C:\USERS\ZOLTáN\DESKTOP\ENVIROMENTCREATOR_VASS_ZOLTáN_P0E4P2\BASEENGINE\PLUGIN.H
C:\USERS\ZOLTáN\DESKTOP\ENVIROMENTCREATOR_VASS_ZOLTáN_P0E4P2\BASEENGINE\PLUGINMD3.H
C:\USERS\ZOLTáN\DESKTOP\ENVIROMENTCREATOR_VASS_ZOLTáN_P0E4P2\BASEENGINE\CONTEXT.H
C:\USERS\ZOLTáN\DESKTOP\ENVIROMENTCREATOR_VASS_ZOLTáN_P0E4P2\BASEENGINE\GRAPHICS.H
C:\USERS\ZOLTáN\DESKTOP\ENVIROMENTCREATOR_VASS_ZOLTáN_P0E4P2\BASEENGINE\CAMERA.H
C:\USERS\ZOLTáN\DESKTOP\ENVIROMENTCREATOR_VASS_ZOLTáN_P0E4P2\BASEENGINE\LIGHT.H
C:\USERS\ZOLTáN\DESKTOP\ENVIROMENTCREATOR_VASS_ZOLTáN_P0E4P2\BASEENGINE\PHYSICS.H
C:\USERS\ZOLTáN\DESKTOP\ENVIROMENTCREATOR_VASS_ZOLTáN_P0E4P2\BASEENGINE\MESSAGE.H
^C:\USERS\ZOLTáN\DESKTOP\ENVIROMENTCREATOR_VASS_ZOLTáN_P0E4P2\BASEENGINE\PLUGINMD3.CPP
C:\USERS\ZOLTáN\DESKTOP\ENVIROMENTCREATOR_VASS_ZOLTáN_P0E4P2\BASEENGINE\DEBUG\BASEENGINE.PCH
E:\PROGRAMS\MICROSOFT VISUAL STUDIO 14.0\VC\BIN\CL.EXE.CONFIG
E:\PROGRAMS\MICROSOFT VISUAL STUDIO 14.0\VC\LIB\STORE\REFERENCES\PLATFORM.WINMD
C:\PROGRAM FILES (X86)\WINDOWS KITS\10\REFERENCES\WINDOWS.FOUNDATION.FOUNDATIONCONTRACT\2.0.0.0\WINDOWS.FOUNDATION.FOUNDATIONCONTRACT.WINMD
C:\PROGRAM FILES (X86)\WINDOWS KITS\10\REFERENCES\WINDOWS.FOUNDATION.UNIVERSALAPICONTRACT\3.0.0.0\WINDOWS.FOUNDATION.UNIVERSALAPICONTRACT.WINMD
C:\PROGRAM FILES (X86)\WINDOWS KITS\10\REFERENCES\WINDOWS.APPLICATIONMODEL.CALLS.CALLSVOIPCONTRACT\1.0.0.0\WINDOWS.APPLICATIONMODEL.CALLS.CALLSVOIPCONTRACT.WINMD
C:\PROGRAM FILES (X86)\WINDOWS KITS\10\REFERENCES\WINDOWS.APPLICATIONMODEL.SOCIALINFO.SOCIALINFOCONTRACT\1.0.0.0\WINDOWS.APPLICATIONMODEL.SOCIALINFO.SOCIALINFOCONTRACT.WINMD
C:\PROGRAM FILES (X86)\WINDOWS KITS\10\REFERENCES\WINDOWS.DEVICES.DEVICESLOWLEVELCONTRACT\2.0.0.0\WINDOWS.DEVICES.DEVICESLOWLEVELCONTRACT.WINMD
C:\PROGRAM FILES (X86)\WINDOWS KITS\10\REFERENCES\WINDOWS.DEVICES.PRINTERS.PRINTERSCONTRACT\1.0.0.0\WINDOWS.DEVICES.PRINTERS.PRINTERSCONTRACT.WINMD
C:\PROGRAM FILES (X86)\WINDOWS KITS\10\REFERENCES\WINDOWS.GRAPHICS.PRINTING3D.PRINTING3DCONTRACT\3.0.0.0\WINDOWS.GRAPHICS.PRINTING3D.PRINTING3DCONTRACT.WINMD
C:\PROGRAM FILES (X86)\WINDOWS KITS\10\REFERENCES\WINDOWS.NETWORKING.CONNECTIVITY.WWANCONTRACT\1.0.0.0\WINDOWS.NETWORKING.CONNECTIVITY.WWANCONTRACT.WINMD
C:\PROGRAM FILES (X86)\WINDOWS KITS\10\REFERENCES\WINDOWS.SERVICES.STORE.STORECONTRACT\1.0.0.0\WINDOWS.SERVICES.STORE.STORECONTRACT.WINMD
C:\PROGRAM FILES (X86)\WINDOWS KITS\10\REFERENCES\WINDOWS.SYSTEM.PROFILE.PROFILEHARDWARETOKENCONTRACT\1.0.0.0\WINDOWS.SYSTEM.PROFILE.PROFILEHARDWARETOKENCONTRACT.WINMD
C:\PROGRAM FILES (X86)\WINDOWS KITS\10\REFERENCES\WINDOWS.SYSTEM.PROFILE.PROFILESHAREDMODECONTRACT\1.0.0.0\WINDOWS.SYSTEM.PROFILE.PROFILESHAREDMODECONTRACT.WINMD
C:\PROGRAM FILES (X86)\WINDOWS KITS\10\REFERENCES\WINDOWS.UI.VIEWMANAGEMENT.VIEWMANAGEMENTVIEWSCALINGCONTRACT\1.0.0.0\WINDOWS.UI.VIEWMANAGEMENT.VIEWMANAGEMENTVIEWSCALINGCONTRACT.WINMD
C:\USERS\ZOLTáN\DESKTOP\ENVIROMENTCREATOR_VASS_ZOLTáN_P0E4P2\BASEENGINE\DEBUG\PCH.OBJ
C:\USERS\ZOLTáN\DESKTOP\ENVIROMENTCREATOR_VASS_ZOLTáN_P0E4P2\BASEENGINE\PLUGINMD3.H
C:\USERS\ZOLTáN\DESKTOP\ENVIROMENTCREATOR_VASS_ZOLTáN_P0E4P2\BASEENGINE\PLUGIN.H
C:\USERS\ZOLTáN\DESKTOP\ENVIROMENTCREATOR_VASS_ZOLTáN_P0E4P2\BASEENGINE\COMMON.H
^C:\USERS\ZOLTáN\DESKTOP\ENVIROMENTCREATOR_VASS_ZOLTáN_P0E4P2\BASEENGINE\CONTENT.CPP
C:\USERS\ZOLTáN\DESKTOP\ENVIROMENTCREATOR_VASS_ZOLTáN_P0E4P2\BASEENGINE\DEBUG\BASEENGINE.PCH
C:\WINDOWS\MICROSOFT.NET\FRAMEWORK\V2.0.50727\MSCORWKS.DLL
C:\WINDOWS\MICROSOFT.NET\FRAMEWORK\V4.0.30319\CLR.DLL
E:\PROGRAMS\MICROSOFT VISUAL STUDIO 14.0\VC\BIN\CL.EXE.CONFIG
E:\PROGRAMS\MICROSOFT VISUAL STUDIO 14.0\VC\LIB\STORE\REFERENCES\PLATFORM.WINMD
C:\PROGRAM FILES (X86)\WINDOWS KITS\10\REFERENCES\WINDOWS.FOUNDATION.FOUNDATIONCONTRACT\2.0.0.0\WINDOWS.FOUNDATION.FOUNDATIONCONTRACT.WINMD
C:\PROGRAM FILES (X86)\WINDOWS KITS\10\REFERENCES\WINDOWS.FOUNDATION.UNIVERSALAPICONTRACT\3.0.0.0\WINDOWS.FOUNDATION.UNIVERSALAPICONTRACT.WINMD
C:\PROGRAM FILES (X86)\WINDOWS KITS\10\REFERENCES\WINDOWS.APPLICATIONMODEL.CALLS.CALLSVOIPCONTRACT\1.0.0.0\WINDOWS.APPLICATIONMODEL.CALLS.CALLSVOIPCONTRACT.WINMD
C:\PROGRAM FILES (X86)\WINDOWS KITS\10\REFERENCES\WINDOWS.APPLICATIONMODEL.SOCIALINFO.SOCIALINFOCONTRACT\1.0.0.0\WINDOWS.APPLICATIONMODEL.SOCIALINFO.SOCIALINFOCONTRACT.WINMD
C:\PROGRAM FILES (X86)\WINDOWS KITS\10\REFERENCES\WINDOWS.DEVICES.DEVICESLOWLEVELCONTRACT\2.0.0.0\WINDOWS.DEVICES.DEVICESLOWLEVELCONTRACT.WINMD
C:\PROGRAM FILES (X86)\WINDOWS KITS\10\REFERENCES\WINDOWS.DEVICES.PRINTERS.PRINTERSCONTRACT\1.0.0.0\WINDOWS.DEVICES.PRINTERS.PRINTERSCONTRACT.WINMD
C:\PROGRAM FILES (X86)\WINDOWS KITS\10\REFERENCES\WINDOWS.GRAPHICS.PRINTING3D.PRINTING3DCONTRACT\3.0.0.0\WINDOWS.GRAPHICS.PRINTING3D.PRINTING3DCONTRACT.WINMD
C:\PROGRAM FILES (X86)\WINDOWS KITS\10\REFERENCES\WINDOWS.NETWORKING.CONNECTIVITY.WWANCONTRACT\1.0.0.0\WINDOWS.NETWORKING.CONNECTIVITY.WWANCONTRACT.WINMD
C:\PROGRAM FILES (X86)\WINDOWS KITS\10\REFERENCES\WINDOWS.SERVICES.STORE.STORECONTRACT\1.0.0.0\WINDOWS.SERVICES.STORE.STORECONTRACT.WINMD
C:\PROGRAM FILES (X86)\WINDOWS KITS\10\REFERENCES\WINDOWS.SYSTEM.PROFILE.PROFILEHARDWARETOKENCONTRACT\1.0.0.0\WINDOWS.SYSTEM.PROFILE.PROFILEHARDWARETOKENCONTRACT.WINMD
C:\PROGRAM FILES (X86)\WINDOWS KITS\10\REFERENCES\WINDOWS.SYSTEM.PROFILE.PROFILESHAREDMODECONTRACT\1.0.0.0\WINDOWS.SYSTEM.PROFILE.PROFILESHAREDMODECONTRACT.WINMD
C:\PROGRAM FILES (X86)\WINDOWS KITS\10\REFERENCES\WINDOWS.UI.VIEWMANAGEMENT.VIEWMANAGEMENTVIEWSCALINGCONTRACT\1.0.0.0\WINDOWS.UI.VIEWMANAGEMENT.VIEWMANAGEMENTVIEWSCALINGCONTRACT.WINMD
C:\USERS\ZOLTáN\DESKTOP\ENVIROMENTCREATOR_VASS_ZOLTáN_P0E4P2\BASEENGINE\DEBUG\PCH.OBJ
C:\USERS\ZOLTáN\DESKTOP\ENVIROMENTCREATOR_VASS_ZOLTáN_P0E4P2\BASEENGINE\CONTENT.H
C:\USERS\ZOLTáN\DESKTOP\ENVIROMENTCREATOR_VASS_ZOLTáN_P0E4P2\BASEENGINE\COMMON.H
C:\USERS\ZOLTáN\DESKTOP\ENVIROMENTCREATOR_VASS_ZOLTáN_P0E4P2\BASEENGINE\DEVICEHANDLER.H
E:\PROGRAMS\MICROSOFT VISUAL STUDIO 14.0\VC\INCLUDE\SHARED_MUTEX
C:\USERS\ZOLTáN\DESKTOP\ENVIROMENTCREATOR_VASS_ZOLTáN_P0E4P2\BASEENGINE\PLUGINBMP.H
C:\USERS\ZOLTáN\DESKTOP\ENVIROMENTCREATOR_VASS_ZOLTáN_P0E4P2\BASEENGINE\PLUGIN.H
C:\USERS\ZOLTáN\DESKTOP\ENVIROMENTCREATOR_VASS_ZOLTáN_P0E4P2\BASEENGINE\PLUGINMD3.H
^C:\USERS\ZOLTáN\DESKTOP\ENVIROMENTCREATOR_VASS_ZOLTáN_P0E4P2\BASEENGINE\LIGHT.CPP
C:\USERS\ZOLTáN\DESKTOP\ENVIROMENTCREATOR_VASS_ZOLTáN_P0E4P2\BASEENGINE\DEBUG\BASEENGINE.PCH
E:\PROGRAMS\MICROSOFT VISUAL STUDIO 14.0\VC\BIN\CL.EXE.CONFIG
E:\PROGRAMS\MICROSOFT VISUAL STUDIO 14.0\VC\LIB\STORE\REFERENCES\PLATFORM.WINMD
C:\PROGRAM FILES (X86)\WINDOWS KITS\10\REFERENCES\WINDOWS.FOUNDATION.FOUNDATIONCONTRACT\2.0.0.0\WINDOWS.FOUNDATION.FOUNDATIONCONTRACT.WINMD
C:\PROGRAM FILES (X86)\WINDOWS KITS\10\REFERENCES\WINDOWS.FOUNDATION.UNIVERSALAPICONTRACT\3.0.0.0\WINDOWS.FOUNDATION.UNIVERSALAPICONTRACT.WINMD
C:\PROGRAM FILES (X86)\WINDOWS KITS\10\REFERENCES\WINDOWS.APPLICATIONMODEL.CALLS.CALLSVOIPCONTRACT\1.0.0.0\WINDOWS.APPLICATIONMODEL.CALLS.CALLSVOIPCONTRACT.WINMD
C:\PROGRAM FILES (X86)\WINDOWS KITS\10\REFERENCES\WINDOWS.APPLICATIONMODEL.SOCIALINFO.SOCIALINFOCONTRACT\1.0.0.0\WINDOWS.APPLICATIONMODEL.SOCIALINFO.SOCIALINFOCONTRACT.WINMD
C:\PROGRAM FILES (X86)\WINDOWS KITS\10\REFERENCES\WINDOWS.DEVICES.DEVICESLOWLEVELCONTRACT\2.0.0.0\WINDOWS.DEVICES.DEVICESLOWLEVELCONTRACT.WINMD
C:\PROGRAM FILES (X86)\WINDOWS KITS\10\REFERENCES\WINDOWS.DEVICES.PRINTERS.PRINTERSCONTRACT\1.0.0.0\WINDOWS.DEVICES.PRINTERS.PRINTERSCONTRACT.WINMD
C:\PROGRAM FILES (X86)\WINDOWS KITS\10\REFERENCES\WINDOWS.GRAPHICS.PRINTING3D.PRINTING3DCONTRACT\3.0.0.0\WINDOWS.GRAPHICS.PRINTING3D.PRINTING3DCONTRACT.WINMD
C:\PROGRAM FILES (X86)\WINDOWS KITS\10\REFERENCES\WINDOWS.NETWORKING.CONNECTIVITY.WWANCONTRACT\1.0.0.0\WINDOWS.NETWORKING.CONNECTIVITY.WWANCONTRACT.WINMD
C:\PROGRAM FILES (X86)\WINDOWS KITS\10\REFERENCES\WINDOWS.SERVICES.STORE.STORECONTRACT\1.0.0.0\WINDOWS.SERVICES.STORE.STORECONTRACT.WINMD
C:\PROGRAM FILES (X86)\WINDOWS KITS\10\REFERENCES\WINDOWS.SYSTEM.PROFILE.PROFILEHARDWARETOKENCONTRACT\1.0.0.0\WINDOWS.SYSTEM.PROFILE.PROFILEHARDWARETOKENCONTRACT.WINMD
C:\PROGRAM FILES (X86)\WINDOWS KITS\10\REFERENCES\WINDOWS.SYSTEM.PROFILE.PROFILESHAREDMODECONTRACT\1.0.0.0\WINDOWS.SYSTEM.PROFILE.PROFILESHAREDMODECONTRACT.WINMD
C:\PROGRAM FILES (X86)\WINDOWS KITS\10\REFERENCES\WINDOWS.UI.VIEWMANAGEMENT.VIEWMANAGEMENTVIEWSCALINGCONTRACT\1.0.0.0\WINDOWS.UI.VIEWMANAGEMENT.VIEWMANAGEMENTVIEWSCALINGCONTRACT.WINMD
C:\USERS\ZOLTáN\DESKTOP\ENVIROMENTCREATOR_VASS_ZOLTáN_P0E4P2\BASEENGINE\DEBUG\PCH.OBJ
C:\USERS\ZOLTáN\DESKTOP\ENVIROMENTCREATOR_VASS_ZOLTáN_P0E4P2\BASEENGINE\LIGHT.H
C:\USERS\ZOLTáN\DESKTOP\ENVIROMENTCREATOR_VASS_ZOLTáN_P0E4P2\BASEENGINE\COMMON.H
^C:\USERS\ZOLTáN\DESKTOP\ENVIROMENTCREATOR_VASS_ZOLTáN_P0E4P2\BASEENGINE\PHYSICS.CPP
C:\USERS\ZOLTáN\DESKTOP\ENVIROMENTCREATOR_VASS_ZOLTáN_P0E4P2\BASEENGINE\DEBUG\BASEENGINE.PCH
E:\PROGRAMS\MICROSOFT VISUAL STUDIO 14.0\VC\BIN\CL.EXE.CONFIG
E:\PROGRAMS\MICROSOFT VISUAL STUDIO 14.0\VC\LIB\STORE\REFERENCES\PLATFORM.WINMD
C:\PROGRAM FILES (X86)\WINDOWS KITS\10\REFERENCES\WINDOWS.FOUNDATION.FOUNDATIONCONTRACT\2.0.0.0\WINDOWS.FOUNDATION.FOUNDATIONCONTRACT.WINMD
C:\PROGRAM FILES (X86)\WINDOWS KITS\10\REFERENCES\WINDOWS.FOUNDATION.UNIVERSALAPICONTRACT\3.0.0.0\WINDOWS.FOUNDATION.UNIVERSALAPICONTRACT.WINMD
C:\PROGRAM FILES (X86)\WINDOWS KITS\10\REFERENCES\WINDOWS.APPLICATIONMODEL.CALLS.CALLSVOIPCONTRACT\1.0.0.0\WINDOWS.APPLICATIONMODEL.CALLS.CALLSVOIPCONTRACT.WINMD
C:\PROGRAM FILES (X86)\WINDOWS KITS\10\REFERENCES\WINDOWS.APPLICATIONMODEL.SOCIALINFO.SOCIALINFOCONTRACT\1.0.0.0\WINDOWS.APPLICATIONMODEL.SOCIALINFO.SOCIALINFOCONTRACT.WINMD
C:\PROGRAM FILES (X86)\WINDOWS KITS\10\REFERENCES\WINDOWS.DEVICES.DEVICESLOWLEVELCONTRACT\2.0.0.0\WINDOWS.DEVICES.DEVICESLOWLEVELCONTRACT.WINMD
C:\PROGRAM FILES (X86)\WINDOWS KITS\10\REFERENCES\WINDOWS.DEVICES.PRINTERS.PRINTERSCONTRACT\1.0.0.0\WINDOWS.DEVICES.PRINTERS.PRINTERSCONTRACT.WINMD
C:\PROGRAM FILES (X86)\WINDOWS KITS\10\REFERENCES\WINDOWS.GRAPHICS.PRINTING3D.PRINTING3DCONTRACT\3.0.0.0\WINDOWS.GRAPHICS.PRINTING3D.PRINTING3DCONTRACT.WINMD
C:\PROGRAM FILES (X86)\WINDOWS KITS\10\REFERENCES\WINDOWS.NETWORKING.CONNECTIVITY.WWANCONTRACT\1.0.0.0\WINDOWS.NETWORKING.CONNECTIVITY.WWANCONTRACT.WINMD
C:\PROGRAM FILES (X86)\WINDOWS KITS\10\REFERENCES\WINDOWS.SERVICES.STORE.STORECONTRACT\1.0.0.0\WINDOWS.SERVICES.STORE.STORECONTRACT.WINMD
C:\PROGRAM FILES (X86)\WINDOWS KITS\10\REFERENCES\WINDOWS.SYSTEM.PROFILE.PROFILEHARDWARETOKENCONTRACT\1.0.0.0\WINDOWS.SYSTEM.PROFILE.PROFILEHARDWARETOKENCONTRACT.WINMD
C:\PROGRAM FILES (X86)\WINDOWS KITS\10\REFERENCES\WINDOWS.SYSTEM.PROFILE.PROFILESHAREDMODECONTRACT\1.0.0.0\WINDOWS.SYSTEM.PROFILE.PROFILESHAREDMODECONTRACT.WINMD
C:\PROGRAM FILES (X86)\WINDOWS KITS\10\REFERENCES\WINDOWS.UI.VIEWMANAGEMENT.VIEWMANAGEMENTVIEWSCALINGCONTRACT\1.0.0.0\WINDOWS.UI.VIEWMANAGEMENT.VIEWMANAGEMENTVIEWSCALINGCONTRACT.WINMD
C:\USERS\ZOLTáN\DESKTOP\ENVIROMENTCREATOR_VASS_ZOLTáN_P0E4P2\BASEENGINE\DEBUG\PCH.OBJ
C:\USERS\ZOLTáN\DESKTOP\ENVIROMENTCREATOR_VASS_ZOLTáN_P0E4P2\BASEENGINE\PHYSICS.H
C:\USERS\ZOLTáN\DESKTOP\ENVIROMENTCREATOR_VASS_ZOLTáN_P0E4P2\BASEENGINE\GRAPHICS.H
C:\USERS\ZOLTáN\DESKTOP\ENVIROMENTCREATOR_VASS_ZOLTáN_P0E4P2\BASEENGINE\CONTEXT.H
C:\USERS\ZOLTáN\DESKTOP\ENVIROMENTCREATOR_VASS_ZOLTáN_P0E4P2\BASEENGINE\COMMON.H
C:\USERS\ZOLTáN\DESKTOP\ENVIROMENTCREATOR_VASS_ZOLTáN_P0E4P2\BASEENGINE\CONTENT.H
C:\USERS\ZOLTáN\DESKTOP\ENVIROMENTCREATOR_VASS_ZOLTáN_P0E4P2\BASEENGINE\DEVICEHANDLER.H
E:\PROGRAMS\MICROSOFT VISUAL STUDIO 14.0\VC\INCLUDE\SHARED_MUTEX
C:\USERS\ZOLTáN\DESKTOP\ENVIROMENTCREATOR_VASS_ZOLTáN_P0E4P2\BASEENGINE\PLUGINBMP.H
C:\USERS\ZOLTáN\DESKTOP\ENVIROMENTCREATOR_VASS_ZOLTáN_P0E4P2\BASEENGINE\PLUGIN.H
C:\USERS\ZOLTáN\DESKTOP\ENVIROMENTCREATOR_VASS_ZOLTáN_P0E4P2\BASEENGINE\PLUGINMD3.H
C:\USERS\ZOLTáN\DESKTOP\ENVIROMENTCREATOR_VASS_ZOLTáN_P0E4P2\BASEENGINE\CAMERA.H
C:\USERS\ZOLTáN\DESKTOP\ENVIROMENTCREATOR_VASS_ZOLTáN_P0E4P2\BASEENGINE\LIGHT.H
^C:\USERS\ZOLTáN\DESKTOP\ENVIROMENTCREATOR_VASS_ZOLTáN_P0E4P2\BASEENGINE\CAMERA.CPP
C:\USERS\ZOLTáN\DESKTOP\ENVIROMENTCREATOR_VASS_ZOLTáN_P0E4P2\BASEENGINE\DEBUG\BASEENGINE.PCH
C:\WINDOWS\MICROSOFT.NET\FRAMEWORK\V2.0.50727\MSCORWKS.DLL
C:\WINDOWS\MICROSOFT.NET\FRAMEWORK\V4.0.30319\CLR.DLL
E:\PROGRAMS\MICROSOFT VISUAL STUDIO 14.0\VC\BIN\CL.EXE.CONFIG
E:\PROGRAMS\MICROSOFT VISUAL STUDIO 14.0\VC\LIB\STORE\REFERENCES\PLATFORM.WINMD
C:\PROGRAM FILES (X86)\WINDOWS KITS\10\REFERENCES\WINDOWS.FOUNDATION.FOUNDATIONCONTRACT\2.0.0.0\WINDOWS.FOUNDATION.FOUNDATIONCONTRACT.WINMD
C:\PROGRAM FILES (X86)\WINDOWS KITS\10\REFERENCES\WINDOWS.FOUNDATION.UNIVERSALAPICONTRACT\3.0.0.0\WINDOWS.FOUNDATION.UNIVERSALAPICONTRACT.WINMD
C:\PROGRAM FILES (X86)\WINDOWS KITS\10\REFERENCES\WINDOWS.APPLICATIONMODEL.CALLS.CALLSVOIPCONTRACT\1.0.0.0\WINDOWS.APPLICATIONMODEL.CALLS.CALLSVOIPCONTRACT.WINMD
C:\PROGRAM FILES (X86)\WINDOWS KITS\10\REFERENCES\WINDOWS.APPLICATIONMODEL.SOCIALINFO.SOCIALINFOCONTRACT\1.0.0.0\WINDOWS.APPLICATIONMODEL.SOCIALINFO.SOCIALINFOCONTRACT.WINMD
C:\PROGRAM FILES (X86)\WINDOWS KITS\10\REFERENCES\WINDOWS.DEVICES.DEVICESLOWLEVELCONTRACT\2.0.0.0\WINDOWS.DEVICES.DEVICESLOWLEVELCONTRACT.WINMD
C:\PROGRAM FILES (X86)\WINDOWS KITS\10\REFERENCES\WINDOWS.DEVICES.PRINTERS.PRINTERSCONTRACT\1.0.0.0\WINDOWS.DEVICES.PRINTERS.PRINTERSCONTRACT.WINMD
C:\PROGRAM FILES (X86)\WINDOWS KITS\10\REFERENCES\WINDOWS.GRAPHICS.PRINTING3D.PRINTING3DCONTRACT\3.0.0.0\WINDOWS.GRAPHICS.PRINTING3D.PRINTING3DCONTRACT.WINMD
C:\PROGRAM FILES (X86)\WINDOWS KITS\10\REFERENCES\WINDOWS.NETWORKING.CONNECTIVITY.WWANCONTRACT\1.0.0.0\WINDOWS.NETWORKING.CONNECTIVITY.WWANCONTRACT.WINMD
C:\PROGRAM FILES (X86)\WINDOWS KITS\10\REFERENCES\WINDOWS.SERVICES.STORE.STORECONTRACT\1.0.0.0\WINDOWS.SERVICES.STORE.STORECONTRACT.WINMD
C:\PROGRAM FILES (X86)\WINDOWS KITS\10\REFERENCES\WINDOWS.SYSTEM.PROFILE.PROFILEHARDWARETOKENCONTRACT\1.0.0.0\WINDOWS.SYSTEM.PROFILE.PROFILEHARDWARETOKENCONTRACT.WINMD
C:\PROGRAM FILES (X86)\WINDOWS KITS\10\REFERENCES\WINDOWS.SYSTEM.PROFILE.PROFILESHAREDMODECONTRACT\1.0.0.0\WINDOWS.SYSTEM.PROFILE.PROFILESHAREDMODECONTRACT.WINMD
C:\PROGRAM FILES (X86)\WINDOWS KITS\10\REFERENCES\WINDOWS.UI.VIEWMANAGEMENT.VIEWMANAGEMENTVIEWSCALINGCONTRACT\1.0.0.0\WINDOWS.UI.VIEWMANAGEMENT.VIEWMANAGEMENTVIEWSCALINGCONTRACT.WINMD
C:\USERS\ZOLTáN\DESKTOP\ENVIROMENTCREATOR_VASS_ZOLTáN_P0E4P2\BASEENGINE\DEBUG\PCH.OBJ
C:\USERS\ZOLTáN\DESKTOP\ENVIROMENTCREATOR_VASS_ZOLTáN_P0E4P2\BASEENGINE\CAMERA.H
C:\USERS\ZOLTáN\DESKTOP\ENVIROMENTCREATOR_VASS_ZOLTáN_P0E4P2\BASEENGINE\COMMON.H
^C:\USERS\ZOLTáN\DESKTOP\ENVIROMENTCREATOR_VASS_ZOLTáN_P0E4P2\BASEENGINE\GRAPHICS.CPP
C:\USERS\ZOLTáN\DESKTOP\ENVIROMENTCREATOR_VASS_ZOLTáN_P0E4P2\BASEENGINE\DEBUG\BASEENGINE.PCH
E:\PROGRAMS\MICROSOFT VISUAL STUDIO 14.0\VC\BIN\CL.EXE.CONFIG
E:\PROGRAMS\MICROSOFT VISUAL STUDIO 14.0\VC\LIB\STORE\REFERENCES\PLATFORM.WINMD
C:\PROGRAM FILES (X86)\WINDOWS KITS\10\REFERENCES\WINDOWS.FOUNDATION.FOUNDATIONCONTRACT\2.0.0.0\WINDOWS.FOUNDATION.FOUNDATIONCONTRACT.WINMD
C:\PROGRAM FILES (X86)\WINDOWS KITS\10\REFERENCES\WINDOWS.FOUNDATION.UNIVERSALAPICONTRACT\3.0.0.0\WINDOWS.FOUNDATION.UNIVERSALAPICONTRACT.WINMD
C:\PROGRAM FILES (X86)\WINDOWS KITS\10\REFERENCES\WINDOWS.APPLICATIONMODEL.CALLS.CALLSVOIPCONTRACT\1.0.0.0\WINDOWS.APPLICATIONMODEL.CALLS.CALLSVOIPCONTRACT.WINMD
C:\PROGRAM FILES (X86)\WINDOWS KITS\10\REFERENCES\WINDOWS.APPLICATIONMODEL.SOCIALINFO.SOCIALINFOCONTRACT\1.0.0.0\WINDOWS.APPLICATIONMODEL.SOCIALINFO.SOCIALINFOCONTRACT.WINMD
C:\PROGRAM FILES (X86)\WINDOWS KITS\10\REFERENCES\WINDOWS.DEVICES.DEVICESLOWLEVELCONTRACT\2.0.0.0\WINDOWS.DEVICES.DEVICESLOWLEVELCONTRACT.WINMD
C:\PROGRAM FILES (X86)\WINDOWS KITS\10\REFERENCES\WINDOWS.DEVICES.PRINTERS.PRINTERSCONTRACT\1.0.0.0\WINDOWS.DEVICES.PRINTERS.PRINTERSCONTRACT.WINMD
C:\PROGRAM FILES (X86)\WINDOWS KITS\10\REFERENCES\WINDOWS.GRAPHICS.PRINTING3D.PRINTING3DCONTRACT\3.0.0.0\WINDOWS.GRAPHICS.PRINTING3D.PRINTING3DCONTRACT.WINMD
C:\PROGRAM FILES (X86)\WINDOWS KITS\10\REFERENCES\WINDOWS.NETWORKING.CONNECTIVITY.WWANCONTRACT\1.0.0.0\WINDOWS.NETWORKING.CONNECTIVITY.WWANCONTRACT.WINMD
C:\PROGRAM FILES (X86)\WINDOWS KITS\10\REFERENCES\WINDOWS.SERVICES.STORE.STORECONTRACT\1.0.0.0\WINDOWS.SERVICES.STORE.STORECONTRACT.WINMD
C:\PROGRAM FILES (X86)\WINDOWS KITS\10\REFERENCES\WINDOWS.SYSTEM.PROFILE.PROFILEHARDWARETOKENCONTRACT\1.0.0.0\WINDOWS.SYSTEM.PROFILE.PROFILEHARDWARETOKENCONTRACT.WINMD
C:\PROGRAM FILES (X86)\WINDOWS KITS\10\REFERENCES\WINDOWS.SYSTEM.PROFILE.PROFILESHAREDMODECONTRACT\1.0.0.0\WINDOWS.SYSTEM.PROFILE.PROFILESHAREDMODECONTRACT.WINMD
C:\PROGRAM FILES (X86)\WINDOWS KITS\10\REFERENCES\WINDOWS.UI.VIEWMANAGEMENT.VIEWMANAGEMENTVIEWSCALINGCONTRACT\1.0.0.0\WINDOWS.UI.VIEWMANAGEMENT.VIEWMANAGEMENTVIEWSCALINGCONTRACT.WINMD
C:\USERS\ZOLTáN\DESKTOP\ENVIROMENTCREATOR_VASS_ZOLTáN_P0E4P2\BASEENGINE\DEBUG\PCH.OBJ
C:\USERS\ZOLTáN\DESKTOP\ENVIROMENTCREATOR_VASS_ZOLTáN_P0E4P2\BASEENGINE\GRAPHICS.H
C:\USERS\ZOLTáN\DESKTOP\ENVIROMENTCREATOR_VASS_ZOLTáN_P0E4P2\BASEENGINE\CONTEXT.H
C:\USERS\ZOLTáN\DESKTOP\ENVIROMENTCREATOR_VASS_ZOLTáN_P0E4P2\BASEENGINE\COMMON.H
C:\USERS\ZOLTáN\DESKTOP\ENVIROMENTCREATOR_VASS_ZOLTáN_P0E4P2\BASEENGINE\CONTENT.H
C:\USERS\ZOLTáN\DESKTOP\ENVIROMENTCREATOR_VASS_ZOLTáN_P0E4P2\BASEENGINE\DEVICEHANDLER.H
E:\PROGRAMS\MICROSOFT VISUAL STUDIO 14.0\VC\INCLUDE\SHARED_MUTEX
C:\USERS\ZOLTáN\DESKTOP\ENVIROMENTCREATOR_VASS_ZOLTáN_P0E4P2\BASEENGINE\PLUGINBMP.H
C:\USERS\ZOLTáN\DESKTOP\ENVIROMENTCREATOR_VASS_ZOLTáN_P0E4P2\BASEENGINE\PLUGIN.H
C:\USERS\ZOLTáN\DESKTOP\ENVIROMENTCREATOR_VASS_ZOLTáN_P0E4P2\BASEENGINE\PLUGINMD3.H
C:\USERS\ZOLTáN\DESKTOP\ENVIROMENTCREATOR_VASS_ZOLTáN_P0E4P2\BASEENGINE\CAMERA.H
C:\USERS\ZOLTáN\DESKTOP\ENVIROMENTCREATOR_VASS_ZOLTáN_P0E4P2\BASEENGINE\LIGHT.H
