^C:\USERS\ZOLTÁN\DESKTOP\ENVIROMENTCREATOR_VASS_ZOLTÁN_P0E4P2\BASEENGINE\DEBUG\BASEENGINE.OBJ|C:\USERS\ZOLTÁN\DESKTOP\ENVIROMENTCREATOR_VASS_ZOLTÁN_P0E4P2\BASEENGINE\DEBUG\CAMERA.OBJ|C:\USERS\ZOLTÁN\DESKTOP\ENVIROMENTCREATOR_VASS_ZOLTÁN_P0E4P2\BASEENGINE\DEBUG\CONTENT.OBJ|C:\USERS\ZOLTÁN\DESKTOP\ENVIROMENTCREATOR_VASS_ZOLTÁN_P0E4P2\BASEENGINE\DEBUG\CONTEXT.OBJ|C:\USERS\ZOLTÁN\DESKTOP\ENVIROMENTCREATOR_VASS_ZOLTÁN_P0E4P2\BASEENGINE\DEBUG\DLLMAIN.OBJ|C:\USERS\ZOLTÁN\DESKTOP\ENVIROMENTCREATOR_VASS_ZOLTÁN_P0E4P2\BASEENGINE\DEBUG\GRAPHICS.OBJ|C:\USERS\ZOLTÁN\DESKTOP\ENVIROMENTCREATOR_VASS_ZOLTÁN_P0E4P2\BASEENGINE\DEBUG\LIGHT.OBJ|C:\USERS\ZOLTÁN\DESKTOP\ENVIROMENTCREATOR_VASS_ZOLTÁN_P0E4P2\BASEENGINE\DEBUG\MESSAGE.OBJ|C:\USERS\ZOLTÁN\DESKTOP\ENVIROMENTCREATOR_VASS_ZOLTÁN_P0E4P2\BASEENGINE\DEBUG\PCH.OBJ|C:\USERS\ZOLTÁN\DESKTOP\ENVIROMENTCREATOR_VASS_ZOLTÁN_P0E4P2\BASEENGINE\DEBUG\PHYSICS.OBJ|C:\USERS\ZOLTÁN\DESKTOP\ENVIROMENTCREATOR_VASS_ZOLTÁN_P0E4P2\BASEENGINE\DEBUG\PLUGINBMP.OBJ|C:\USERS\ZOLTÁN\DESKTOP\ENVIROMENTCREATOR_VASS_ZOLTÁN_P0E4P2\BASEENGINE\DEBUG\PLUGINMD3.OBJ
C:\USERS\ZOLTáN\DESKTOP\ENVIROMENTCREATOR_VASS_ZOLTáN_P0E4P2\DEBUG\BASEENGINE\BASEENGINE.ILK
C:\USERS\ZOLTáN\DESKTOP\ENVIROMENTCREATOR_VASS_ZOLTáN_P0E4P2\DEBUG\BASEENGINE\BASEENGINE.DLL
C:\USERS\ZOLTÁN\DESKTOP\ENVIROMENTCREATOR_VASS_ZOLTÁN_P0E4P2\DEBUG\BASEENGINE\BASEENGINE.PDB
